<?xml version="1.0" encoding="utf-8"?>
<!-- Generator: Adobe Illustrator 17.1.0, SVG Export Plug-In . SVG Version: 6.00 Build 0)  -->
<!DOCTYPE svg PUBLIC "-//W3C//DTD SVG 1.1//EN" "http://www.w3.org/Graphics/SVG/1.1/DTD/svg11.dtd">
<svg version="1.1" id="Layer_1" xmlns="http://www.w3.org/2000/svg" xmlns:xlink="http://www.w3.org/1999/xlink" x="0px" y="0px"
	 width="211.1px" height="61.9px" viewBox="0 0 211.1 61.9" enable-background="new 0 0 211.1 61.9" xml:space="preserve">
<g>
	<linearGradient id="SVGID_1_" gradientUnits="userSpaceOnUse" x1="58.5766" y1="12.2387" x2="58.5766" y2="40.9595">
		<stop  offset="0" style="stop-color:#FEF082"/>
		<stop  offset="5.217390e-002" style="stop-color:#B88F2E"/>
		<stop  offset="0.1957" style="stop-color:#FFF3A9"/>
		<stop  offset="0.2957" style="stop-color:#C29A46"/>
		<stop  offset="0.5087" style="stop-color:#F3E99D"/>
		<stop  offset="0.5734" style="stop-color:#E5D184"/>
		<stop  offset="0.6434" style="stop-color:#D9BE70"/>
		<stop  offset="0.687" style="stop-color:#D5B768"/>
		<stop  offset="0.7652" style="stop-color:#FFF3A9"/>
		<stop  offset="0.9174" style="stop-color:#C09B2E"/>
		<stop  offset="1" style="stop-color:#FFF3A9"/>
	</linearGradient>
	<linearGradient id="SVGID_2_" gradientUnits="userSpaceOnUse" x1="53.9026" y1="28.6974" x2="63.2506" y2="28.6974">
		<stop  offset="0" style="stop-color:#FEF082"/>
		<stop  offset="5.217390e-002" style="stop-color:#B88F2E"/>
		<stop  offset="0.1957" style="stop-color:#FFF3A9"/>
		<stop  offset="0.2957" style="stop-color:#C29A46"/>
		<stop  offset="0.5087" style="stop-color:#F3E99D"/>
		<stop  offset="0.5734" style="stop-color:#E5D184"/>
		<stop  offset="0.6434" style="stop-color:#D9BE70"/>
		<stop  offset="0.687" style="stop-color:#D5B768"/>
		<stop  offset="0.7652" style="stop-color:#FFF3A9"/>
		<stop  offset="0.9174" style="stop-color:#C09B2E"/>
		<stop  offset="1" style="stop-color:#FFF3A9"/>
	</linearGradient>
	<path fill="url(#SVGID_1_)" stroke="url(#SVGID_2_)" stroke-miterlimit="10" d="M61.1,24.3c-0.5-0.5-1.1-0.9-1.7-1.2
		c-0.6-0.3-1.3-0.5-1.9-0.6c-0.6-0.1-1.2-0.2-1.8-0.1c-0.5,0-1,0.1-1.3,0.2v11.9c0.6,0.4,1.3,0.6,2.3,0.6c0.9-0.1,1.9-0.3,2.8-0.8
		c0.9-0.5,1.7-1.2,2.3-2.1c0.7-0.9,1-1.9,1-3.1c0-1.1-0.2-2-0.5-2.8C62,25.5,61.6,24.8,61.1,24.3z"/>
	<linearGradient id="SVGID_3_" gradientUnits="userSpaceOnUse" x1="45.5311" y1="-41.2375" x2="45.5311" y2="87.5045">
		<stop  offset="0" style="stop-color:#FEF082"/>
		<stop  offset="5.217390e-002" style="stop-color:#B88F2E"/>
		<stop  offset="0.1957" style="stop-color:#FFF3A9"/>
		<stop  offset="0.2957" style="stop-color:#C29A46"/>
		<stop  offset="0.5087" style="stop-color:#F3E99D"/>
		<stop  offset="0.5734" style="stop-color:#E5D184"/>
		<stop  offset="0.6434" style="stop-color:#D9BE70"/>
		<stop  offset="0.687" style="stop-color:#D5B768"/>
		<stop  offset="0.7652" style="stop-color:#FFF3A9"/>
		<stop  offset="0.9174" style="stop-color:#C09B2E"/>
		<stop  offset="1" style="stop-color:#FFF3A9"/>
	</linearGradient>
	<linearGradient id="SVGID_4_" gradientUnits="userSpaceOnUse" x1="16.5446" y1="32.5393" x2="74.5177" y2="32.5393">
		<stop  offset="0" style="stop-color:#FEF082"/>
		<stop  offset="5.217390e-002" style="stop-color:#B88F2E"/>
		<stop  offset="0.1957" style="stop-color:#FFF3A9"/>
		<stop  offset="0.2957" style="stop-color:#C29A46"/>
		<stop  offset="0.5087" style="stop-color:#F3E99D"/>
		<stop  offset="0.5734" style="stop-color:#E5D184"/>
		<stop  offset="0.6434" style="stop-color:#D9BE70"/>
		<stop  offset="0.687" style="stop-color:#D5B768"/>
		<stop  offset="0.7652" style="stop-color:#FFF3A9"/>
		<stop  offset="0.9174" style="stop-color:#C09B2E"/>
		<stop  offset="1" style="stop-color:#FFF3A9"/>
	</linearGradient>
	<path fill="url(#SVGID_3_)" stroke="url(#SVGID_4_)" stroke-miterlimit="10" d="M45.5,4.1C29.8,4.1,17,16.8,17,32.5
		C17,48.3,29.8,61,45.5,61S74,48.3,74,32.5C74,16.8,61.3,4.1,45.5,4.1z M59.7,37.9c-0.2,0.1-0.6,0.3-1,0.4c-0.5,0.1-0.9,0.2-1.5,0.2
		c-0.5,0-1.1,0-1.6,0c-0.5-0.1-0.9-0.2-1.2-0.4v6.3h-0.1v0.1h-3.7V26l-9,17.5l-9.2-17.7v18.6h-3.7V18.8h4.1l8.8,16.8l8.7-16.8h4.1
		v0.1h2.2c1.8,0,3.3,0.3,4.6,0.9c1.3,0.7,2.3,1.5,3,2.5c0.8,1,1.3,2.1,1.7,3.3c0.3,1.2,0.5,2.3,0.5,3.3c0,1-0.2,2-0.5,2.8
		c-0.3,0.8-0.7,1.6-1.1,2.2c-0.4,0.6-0.8,1.1-1.1,1.5c-0.4,0.4-0.6,0.7-0.7,0.8l7.7,8.4h-4.9L59.7,37.9z"/>
</g>
<linearGradient id="SVGID_5_" gradientUnits="userSpaceOnUse" x1="10.2697" y1="-1.7028" x2="10.2697" y2="56.4533">
	<stop  offset="0" style="stop-color:#FEF082"/>
	<stop  offset="5.217390e-002" style="stop-color:#B88F2E"/>
	<stop  offset="0.1957" style="stop-color:#FFF3A9"/>
	<stop  offset="0.2957" style="stop-color:#C29A46"/>
	<stop  offset="0.5087" style="stop-color:#F3E99D"/>
	<stop  offset="0.5734" style="stop-color:#E5D184"/>
	<stop  offset="0.6434" style="stop-color:#D9BE70"/>
	<stop  offset="0.687" style="stop-color:#D5B768"/>
	<stop  offset="0.7652" style="stop-color:#FFF3A9"/>
	<stop  offset="0.9174" style="stop-color:#C09B2E"/>
	<stop  offset="1" style="stop-color:#FFF3A9"/>
</linearGradient>
<linearGradient id="SVGID_6_" gradientUnits="userSpaceOnUse" x1="0.3934" y1="29.5988" x2="20.1482" y2="29.5988">
	<stop  offset="0" style="stop-color:#FEF082"/>
	<stop  offset="5.217390e-002" style="stop-color:#B88F2E"/>
	<stop  offset="0.1957" style="stop-color:#FFF3A9"/>
	<stop  offset="0.2957" style="stop-color:#C29A46"/>
	<stop  offset="0.5087" style="stop-color:#F3E99D"/>
	<stop  offset="0.5734" style="stop-color:#E5D184"/>
	<stop  offset="0.6434" style="stop-color:#D9BE70"/>
	<stop  offset="0.687" style="stop-color:#D5B768"/>
	<stop  offset="0.7652" style="stop-color:#FFF3A9"/>
	<stop  offset="0.9174" style="stop-color:#C09B2E"/>
	<stop  offset="1" style="stop-color:#FFF3A9"/>
</linearGradient>
<path fill="url(#SVGID_5_)" stroke="url(#SVGID_6_)" stroke-miterlimit="10" d="M16.9,11.2c-0.5-0.8-1.1-0.7-1.9-0.9
	c-0.6-0.2-1.6-0.3-2.3-0.5c-0.1,0-0.1-0.2-0.2-0.2c-0.4-0.2-0.9-0.3-1.3-0.4C11,8.5,11,8.1,11.1,7.6c0.2-0.3,0.3-0.4,0.4-1.2
	c0.1-0.1,0.2-0.3,0.2-0.3c0.1-0.6,0.2-1,0.2-1.3c0-0.2-0.2-0.3-0.3-0.3c0-0.3-0.1-1.7-0.1-1.7c-0.3-1.2-1-2-2.9-1.8
	c-2.4,0.4-2.4,2-2.3,2.8l0.1,0.9c0,0-0.3,0-0.3,0.2C6,5.2,6.1,5.7,6.3,6c0,0,0.3,0.6,0.5,0.7c0.1,0,0.3,1,0.7,1.2
	c0.1,0.5,0,0.9-0.1,1.4C7,9.5,6.8,9.6,6.6,9.7C6.5,9.8,6.2,10,6,10.1c-0.1,0-0.1,0.2-0.1,0.2c-1.3,0.7-2.8,1.1-3.4,1.4
	c-0.7,0.3-1.7,8.2-1.5,9.9c0.2,1.7,1.3,4.7,2.7,7.3c0.1,0.2,0.9,0.3,1,0.4c0.2,0.4,0,0.3,0,1c0.3,0.1,0.6,0.2,0.9,0.3
	c0,0.9,0.1,2.5,0.3,4.2c0.3,2.7,1.1,5.8,1.4,7.2c0.1,0.4,0.5,1.5,0.5,1.5s0.1,2.6,0.6,4.2c0.3,0.8,0.3,5.4,0.4,6
	C8.8,53.9,9,54,9.4,54.1c0,0.1,0,0.1,0,0.2c-0.3,1-0.4,1.3-0.5,2C8.8,57,9.5,58.3,11,58.3c0.9,0,1.4-1.2,1.5-1.7
	c0-0.5-0.6-1.6-0.6-2.3c0-0.1,0-0.3,0.1-0.5c0.4-0.2,0.7-0.4,0.9-0.7c0,0-0.5-6.1-0.6-7.5c-0.1-1.4-0.2-2.5-0.4-3.3
	c-0.2-1.2-0.7-6-0.3-7.9c1.2,1.9,1.5,7.3,1.8,7.9c0,0-0.2,0-0.2,0.2c0,0.1,0.2,0.2,0.2,0.3c0.1,0.3-0.1,1,0,2.1c0,0-0.2,5,0.1,6.2
	c0.1,0.4,0.4,0.7,0.9,1c0,0.2,0.1,0.4,0.2,0.6c0.9,1.1,0.9,2.1,1.2,2.7c0.3,0.6,1.5,1.5,2.2,1.2c0.7-0.3,0.8-0.9,0.7-2.3
	c-0.1-0.9-0.9-1.8-1.5-2.4c0.1-0.2,0.3-0.4,0.3-0.7c0,0-0.1-6.8-0.1-8c0,0,0.1-5.9-0.8-12c0,0,0,0,0.1,0c0.2,0,0.2-0.1,0.2-0.1
	c0.1,0,0.2,0,0.3-0.1c0.3-0.3,0.6-0.9,0.6-0.9s0.7-2,0.7-2.3c0-0.3,0.1-0.8,0.1-0.8c0-0.1-0.1-0.1-0.1-0.2c0.4,0.3,0.5,0.6,0.5,0.6
	l0.1-0.4c-0.7-1.1-1.5-1.4-2.1-1.4c1.4,0,2.1,1.4,2.1,1.4c0.3-3.5,0.5-6.9,0.5-6.9S19,14.8,16.9,11.2z M5,24.8
	c0-0.5-0.5-2.2-0.8-3.2c0-0.2,0.1-0.2,0-0.3c0-0.2-0.2-0.3-0.1-0.4C4.2,20.4,4.6,18,4.6,18s0.5,2.2,0.5,2.9C5.2,21.6,5,24.8,5,24.8z
	 M12,12c0,0.9-1.3,3-1.8,4.1c0,0,0,0,0,0c0-0.6-0.4-2.6-0.4-2.6l0.4-0.5c0,0-0.4-0.6-0.5-0.7c-0.1-0.1-0.4,0-0.4,0L8.8,13l0.4,0.5
	C9,13.8,9.1,16,9.1,16l0,0c-0.6-1-1.8-2.5-2.4-3.7c-0.3-0.8-0.2-1.6,0-2.1C6.9,9.8,7,9.6,7.3,9.4c0,0.1-0.1,0.2-0.1,0.3
	c0,0-0.2,0.9,0.8,1.2c1,0.2,1.2,0.5,1.2,0.5h0.2c0,0,0.8-0.7,1.5-0.9c0.2-0.1,0.5-0.4,0.5-0.8c0-0.2-0.1-0.3-0.2-0.5
	c0.2,0.1,0.3,0.2,0.4,0.3C12.2,9.9,12,10.9,12,12z M16.8,25.9c-0.2,0-0.3,0-0.3,0c0,0.2-0.1,0.4-0.3,0.6c-0.1-0.2-0.2-0.5-0.2-1.1
	c-0.1-0.7-0.4-2.5-0.4-4.1c-0.1-1.9,0.1-3.6,0.1-3.6c0.2,0.4,0.7,1.4,0.8,2.6c-0.1,0.1,0,0.3,0.1,0.6c-0.1,1.2-0.3,3.7-0.3,4.5
	c0.1,0,0.1,0,0.2-0.1c0,0,0,0,0,0c0.2,0,0.3-0.1,0.5-0.1c-0.2,0-0.3,0-0.5,0.1c0,0.1,0,0.3,0,0.6C16.6,25.9,16.7,25.9,16.8,25.9z"/>
<linearGradient id="SVGID_7_" gradientUnits="userSpaceOnUse" x1="80.9441" y1="-1.7028" x2="80.9441" y2="56.4533">
	<stop  offset="0" style="stop-color:#FEF082"/>
	<stop  offset="5.217390e-002" style="stop-color:#B88F2E"/>
	<stop  offset="0.1957" style="stop-color:#FFF3A9"/>
	<stop  offset="0.2957" style="stop-color:#C29A46"/>
	<stop  offset="0.5087" style="stop-color:#F3E99D"/>
	<stop  offset="0.5734" style="stop-color:#E5D184"/>
	<stop  offset="0.6434" style="stop-color:#D9BE70"/>
	<stop  offset="0.687" style="stop-color:#D5B768"/>
	<stop  offset="0.7652" style="stop-color:#FFF3A9"/>
	<stop  offset="0.9174" style="stop-color:#C09B2E"/>
	<stop  offset="1" style="stop-color:#FFF3A9"/>
</linearGradient>
<linearGradient id="SVGID_8_" gradientUnits="userSpaceOnUse" x1="73.5177" y1="32.5611" x2="88.3706" y2="32.5611">
	<stop  offset="0" style="stop-color:#FEF082"/>
	<stop  offset="5.217390e-002" style="stop-color:#B88F2E"/>
	<stop  offset="0.1957" style="stop-color:#FFF3A9"/>
	<stop  offset="0.2957" style="stop-color:#C29A46"/>
	<stop  offset="0.5087" style="stop-color:#F3E99D"/>
	<stop  offset="0.5734" style="stop-color:#E5D184"/>
	<stop  offset="0.6434" style="stop-color:#D9BE70"/>
	<stop  offset="0.687" style="stop-color:#D5B768"/>
	<stop  offset="0.7652" style="stop-color:#FFF3A9"/>
	<stop  offset="0.9174" style="stop-color:#C09B2E"/>
	<stop  offset="1" style="stop-color:#FFF3A9"/>
</linearGradient>
<path fill="url(#SVGID_7_)" stroke="url(#SVGID_8_)" stroke-miterlimit="10" d="M81.7,47.8V28H74v-4.7c1.1,0,2.1-0.1,3.1-0.2
	c1-0.2,1.9-0.5,2.7-1c0.8-0.5,1.5-1.1,2-1.9c0.6-0.8,0.9-1.8,1.1-2.9h4.9v30.5H81.7z"/>
<linearGradient id="SVGID_9_" gradientUnits="userSpaceOnUse" x1="107.1242" y1="-1.7028" x2="107.1242" y2="56.4533">
	<stop  offset="0" style="stop-color:#FEF082"/>
	<stop  offset="5.217390e-002" style="stop-color:#B88F2E"/>
	<stop  offset="0.1957" style="stop-color:#FFF3A9"/>
	<stop  offset="0.2957" style="stop-color:#C29A46"/>
	<stop  offset="0.5087" style="stop-color:#F3E99D"/>
	<stop  offset="0.5734" style="stop-color:#E5D184"/>
	<stop  offset="0.6434" style="stop-color:#D9BE70"/>
	<stop  offset="0.687" style="stop-color:#D5B768"/>
	<stop  offset="0.7652" style="stop-color:#FFF3A9"/>
	<stop  offset="0.9174" style="stop-color:#C09B2E"/>
	<stop  offset="1" style="stop-color:#FFF3A9"/>
</linearGradient>
<linearGradient id="SVGID_10_" gradientUnits="userSpaceOnUse" x1="95.2969" y1="32.5393" x2="118.9514" y2="32.5393">
	<stop  offset="0" style="stop-color:#FEF082"/>
	<stop  offset="5.217390e-002" style="stop-color:#B88F2E"/>
	<stop  offset="0.1957" style="stop-color:#FFF3A9"/>
	<stop  offset="0.2957" style="stop-color:#C29A46"/>
	<stop  offset="0.5087" style="stop-color:#F3E99D"/>
	<stop  offset="0.5734" style="stop-color:#E5D184"/>
	<stop  offset="0.6434" style="stop-color:#D9BE70"/>
	<stop  offset="0.687" style="stop-color:#D5B768"/>
	<stop  offset="0.7652" style="stop-color:#FFF3A9"/>
	<stop  offset="0.9174" style="stop-color:#C09B2E"/>
	<stop  offset="1" style="stop-color:#FFF3A9"/>
</linearGradient>
<path fill="url(#SVGID_9_)" stroke="url(#SVGID_10_)" stroke-miterlimit="10" d="M107.1,29.6c0.8-0.1,1.5-0.2,2.1-0.5
	c0.7-0.3,1.2-0.7,1.6-1.2c0.4-0.5,0.6-1.2,0.6-2.1c0-1.3-0.4-2.3-1.3-3c-0.9-0.7-1.9-1-3-1c-1.6,0-2.8,0.5-3.6,1.5
	c-0.8,1-1.2,2.3-1.2,3.9h-5.9c0.1-1.6,0.3-3,0.8-4.3c0.5-1.3,1.2-2.4,2.1-3.3c0.9-0.9,2-1.6,3.3-2.2c1.3-0.5,2.7-0.8,4.3-0.8
	c1.2,0,2.4,0.2,3.7,0.5c1.2,0.4,2.3,0.9,3.3,1.6c1,0.7,1.8,1.6,2.4,2.7c0.6,1,0.9,2.3,0.9,3.6c0,1.5-0.4,2.8-1.1,3.9
	c-0.7,1.1-1.8,1.9-3.2,2.3v0.1c1.7,0.4,3,1.2,4,2.4c1,1.2,1.4,2.7,1.4,4.5c0,1.6-0.3,3-0.9,4.3c-0.6,1.2-1.5,2.3-2.5,3.1
	c-1,0.8-2.3,1.5-3.6,1.9c-1.4,0.4-2.8,0.7-4.3,0.7c-1.7,0-3.3-0.2-4.7-0.7c-1.4-0.5-2.6-1.2-3.6-2.2c-1-0.9-1.7-2.1-2.3-3.5
	c-0.5-1.4-0.8-2.9-0.8-4.7h5.9c0,0.8,0.2,1.6,0.4,2.3c0.2,0.7,0.6,1.4,1,1.9c0.4,0.5,1,1,1.6,1.3c0.7,0.3,1.4,0.5,2.3,0.5
	c1.4,0,2.6-0.4,3.5-1.3c1-0.9,1.4-2,1.4-3.5c0-1.2-0.2-2-0.7-2.7c-0.5-0.6-1-1.1-1.7-1.3c-0.7-0.3-1.5-0.4-2.3-0.5
	c-0.8,0-1.6-0.1-2.4-0.1v-4.4C105.6,29.7,106.3,29.7,107.1,29.6z"/>
<linearGradient id="SVGID_11_" gradientUnits="userSpaceOnUse" x1="131.3462" y1="-1.7028" x2="131.3462" y2="56.4533">
	<stop  offset="0" style="stop-color:#FEF082"/>
	<stop  offset="5.217390e-002" style="stop-color:#B88F2E"/>
	<stop  offset="0.1957" style="stop-color:#FFF3A9"/>
	<stop  offset="0.2957" style="stop-color:#C29A46"/>
	<stop  offset="0.5087" style="stop-color:#F3E99D"/>
	<stop  offset="0.5734" style="stop-color:#E5D184"/>
	<stop  offset="0.6434" style="stop-color:#D9BE70"/>
	<stop  offset="0.687" style="stop-color:#D5B768"/>
	<stop  offset="0.7652" style="stop-color:#FFF3A9"/>
	<stop  offset="0.9174" style="stop-color:#C09B2E"/>
	<stop  offset="1" style="stop-color:#FFF3A9"/>
</linearGradient>
<linearGradient id="SVGID_12_" gradientUnits="userSpaceOnUse" x1="119.3458" y1="32.5393" x2="143.3466" y2="32.5393">
	<stop  offset="0" style="stop-color:#FEF082"/>
	<stop  offset="5.217390e-002" style="stop-color:#B88F2E"/>
	<stop  offset="0.1957" style="stop-color:#FFF3A9"/>
	<stop  offset="0.2957" style="stop-color:#C29A46"/>
	<stop  offset="0.5087" style="stop-color:#F3E99D"/>
	<stop  offset="0.5734" style="stop-color:#E5D184"/>
	<stop  offset="0.6434" style="stop-color:#D9BE70"/>
	<stop  offset="0.687" style="stop-color:#D5B768"/>
	<stop  offset="0.7652" style="stop-color:#FFF3A9"/>
	<stop  offset="0.9174" style="stop-color:#C09B2E"/>
	<stop  offset="1" style="stop-color:#FFF3A9"/>
</linearGradient>
<path fill="url(#SVGID_11_)" stroke="url(#SVGID_12_)" stroke-miterlimit="10" d="M122,21.4c0.6-1,1.4-1.9,2.4-2.6
	c1-0.7,2.1-1.2,3.3-1.6c1.2-0.3,2.5-0.5,3.7-0.5c1.9,0,3.5,0.3,4.8,0.9c1.3,0.6,2.4,1.3,3.2,2.1c0.8,0.8,1.4,1.7,1.7,2.7
	c0.3,0.9,0.5,1.8,0.5,2.5c0,1.5-0.4,2.8-1.1,4c-0.7,1.1-1.9,1.9-3.3,2.4v0.1c1.8,0.4,3.2,1.3,4.2,2.6c1,1.3,1.5,2.9,1.5,4.9
	c0,1.6-0.3,3-1,4.2c-0.7,1.2-1.5,2.2-2.6,3c-1.1,0.8-2.3,1.4-3.7,1.8c-1.4,0.4-2.8,0.6-4.2,0.6c-1.5,0-2.9-0.2-4.3-0.5
	c-1.4-0.4-2.6-0.9-3.7-1.7c-1.1-0.8-2-1.8-2.6-3c-0.7-1.2-1-2.6-1-4.3c0-1.9,0.5-3.6,1.5-4.9c1-1.3,2.4-2.2,4.2-2.6v-0.1
	c-1.5-0.4-2.6-1.2-3.4-2.3c-0.8-1.1-1.1-2.5-1.1-4C121.1,23.7,121.4,22.5,122,21.4z M126.5,40.7c0.3,0.6,0.7,1.2,1.2,1.6
	c0.5,0.5,1.1,0.8,1.7,1c0.7,0.2,1.4,0.4,2.1,0.4c0.8,0,1.4-0.1,2.1-0.4c0.6-0.2,1.2-0.6,1.7-1c0.5-0.4,0.8-1,1.1-1.6
	c0.3-0.6,0.4-1.3,0.4-2.1c0-0.7-0.1-1.4-0.4-2c-0.3-0.6-0.7-1.1-1.1-1.5c-0.5-0.4-1-0.8-1.7-1c-0.6-0.2-1.3-0.3-2-0.3
	c-1.5,0-2.8,0.4-3.8,1.2c-1,0.8-1.6,2-1.6,3.6C126,39.4,126.2,40.1,126.5,40.7z M128.1,28.6c0.9,0.7,2,1,3.3,1c1.3,0,2.4-0.3,3.3-1
	c0.9-0.7,1.3-1.7,1.3-3c0-0.4-0.1-0.8-0.2-1.3c-0.1-0.5-0.3-0.9-0.7-1.4c-0.3-0.4-0.8-0.8-1.4-1.1c-0.6-0.3-1.4-0.4-2.3-0.4
	c-0.6,0-1.2,0.1-1.8,0.3c-0.6,0.2-1.1,0.5-1.5,0.8c-0.4,0.3-0.8,0.8-1,1.3c-0.2,0.5-0.4,1.1-0.4,1.8
	C126.7,26.9,127.2,27.9,128.1,28.6z"/>
<linearGradient id="SVGID_13_" gradientUnits="userSpaceOnUse" x1="157.157" y1="-1.7028" x2="157.157" y2="56.4533">
	<stop  offset="0" style="stop-color:#FEF082"/>
	<stop  offset="5.217390e-002" style="stop-color:#B88F2E"/>
	<stop  offset="0.1957" style="stop-color:#FFF3A9"/>
	<stop  offset="0.2957" style="stop-color:#C29A46"/>
	<stop  offset="0.5087" style="stop-color:#F3E99D"/>
	<stop  offset="0.5734" style="stop-color:#E5D184"/>
	<stop  offset="0.6434" style="stop-color:#D9BE70"/>
	<stop  offset="0.687" style="stop-color:#D5B768"/>
	<stop  offset="0.7652" style="stop-color:#FFF3A9"/>
	<stop  offset="0.9174" style="stop-color:#C09B2E"/>
	<stop  offset="1" style="stop-color:#FFF3A9"/>
</linearGradient>
<linearGradient id="SVGID_14_" gradientUnits="userSpaceOnUse" x1="145.3091" y1="32.5393" x2="169.0049" y2="32.5393">
	<stop  offset="0" style="stop-color:#FEF082"/>
	<stop  offset="5.217390e-002" style="stop-color:#B88F2E"/>
	<stop  offset="0.1957" style="stop-color:#FFF3A9"/>
	<stop  offset="0.2957" style="stop-color:#C29A46"/>
	<stop  offset="0.5087" style="stop-color:#F3E99D"/>
	<stop  offset="0.5734" style="stop-color:#E5D184"/>
	<stop  offset="0.6434" style="stop-color:#D9BE70"/>
	<stop  offset="0.687" style="stop-color:#D5B768"/>
	<stop  offset="0.7652" style="stop-color:#FFF3A9"/>
	<stop  offset="0.9174" style="stop-color:#C09B2E"/>
	<stop  offset="1" style="stop-color:#FFF3A9"/>
</linearGradient>
<path fill="url(#SVGID_13_)" stroke="url(#SVGID_14_)" stroke-miterlimit="10" d="M152,16.7V28h0.1c0.8-1.2,1.8-2,3.1-2.5
	c1.3-0.5,2.6-0.8,4-0.8c1.1,0,2.3,0.2,3.4,0.7c1.1,0.5,2.1,1.2,3,2.1c0.9,1,1.6,2.2,2.2,3.7c0.6,1.5,0.8,3.3,0.8,5.3
	c0,2.1-0.3,3.8-0.8,5.3c-0.6,1.5-1.3,2.7-2.2,3.7c-0.9,1-1.9,1.7-3,2.1c-1.1,0.5-2.2,0.7-3.4,0.7c-1.7,0-3.1-0.3-4.4-0.8
	c-1.3-0.5-2.3-1.4-3-2.7h-0.1v2.9h-5.9V16.7H152z M162,33.8c-0.2-0.9-0.5-1.6-1-2.3c-0.4-0.7-1-1.2-1.6-1.6
	c-0.7-0.4-1.4-0.6-2.4-0.6c-0.9,0-1.7,0.2-2.4,0.6c-0.7,0.4-1.2,0.9-1.7,1.6c-0.4,0.7-0.8,1.4-1,2.3c-0.2,0.9-0.3,1.8-0.3,2.7
	c0,0.9,0.1,1.8,0.3,2.7c0.2,0.9,0.5,1.6,1,2.3c0.4,0.7,1,1.2,1.7,1.6c0.7,0.4,1.5,0.6,2.4,0.6c0.9,0,1.7-0.2,2.4-0.6
	c0.7-0.4,1.2-0.9,1.6-1.6c0.4-0.7,0.8-1.4,1-2.3c0.2-0.9,0.3-1.8,0.3-2.7C162.3,35.6,162.2,34.7,162,33.8z"/>
<linearGradient id="SVGID_15_" gradientUnits="userSpaceOnUse" x1="182.573" y1="-1.7028" x2="182.573" y2="56.4533">
	<stop  offset="0" style="stop-color:#FEF082"/>
	<stop  offset="5.217390e-002" style="stop-color:#B88F2E"/>
	<stop  offset="0.1957" style="stop-color:#FFF3A9"/>
	<stop  offset="0.2957" style="stop-color:#C29A46"/>
	<stop  offset="0.5087" style="stop-color:#F3E99D"/>
	<stop  offset="0.5734" style="stop-color:#E5D184"/>
	<stop  offset="0.6434" style="stop-color:#D9BE70"/>
	<stop  offset="0.687" style="stop-color:#D5B768"/>
	<stop  offset="0.7652" style="stop-color:#FFF3A9"/>
	<stop  offset="0.9174" style="stop-color:#C09B2E"/>
	<stop  offset="1" style="stop-color:#FFF3A9"/>
</linearGradient>
<linearGradient id="SVGID_16_" gradientUnits="userSpaceOnUse" x1="170.8363" y1="36.5253" x2="194.3096" y2="36.5253">
	<stop  offset="0" style="stop-color:#FEF082"/>
	<stop  offset="5.217390e-002" style="stop-color:#B88F2E"/>
	<stop  offset="0.1957" style="stop-color:#FFF3A9"/>
	<stop  offset="0.2957" style="stop-color:#C29A46"/>
	<stop  offset="0.5087" style="stop-color:#F3E99D"/>
	<stop  offset="0.5734" style="stop-color:#E5D184"/>
	<stop  offset="0.6434" style="stop-color:#D9BE70"/>
	<stop  offset="0.687" style="stop-color:#D5B768"/>
	<stop  offset="0.7652" style="stop-color:#FFF3A9"/>
	<stop  offset="0.9174" style="stop-color:#C09B2E"/>
	<stop  offset="1" style="stop-color:#FFF3A9"/>
</linearGradient>
<path fill="url(#SVGID_15_)" stroke="url(#SVGID_16_)" stroke-miterlimit="10" d="M179,42.4c0.9,0.9,2.3,1.4,4,1.4
	c1.2,0,2.3-0.3,3.2-0.9c0.9-0.6,1.5-1.3,1.7-2h5.4c-0.9,2.7-2.2,4.6-4,5.8c-1.8,1.2-4,1.7-6.5,1.7c-1.8,0-3.4-0.3-4.8-0.8
	c-1.4-0.6-2.6-1.4-3.6-2.4c-1-1-1.7-2.3-2.3-3.7c-0.5-1.5-0.8-3-0.8-4.8c0-1.7,0.3-3.3,0.8-4.7c0.6-1.5,1.3-2.7,2.4-3.8
	c1-1.1,2.2-1.9,3.6-2.5c1.4-0.6,3-0.9,4.7-0.9c1.9,0,3.6,0.4,5,1.1c1.4,0.7,2.6,1.7,3.5,3c0.9,1.2,1.6,2.7,2,4.3
	c0.4,1.6,0.6,3.3,0.4,5h-16.2C177.6,40.1,178.1,41.5,179,42.4z M186,30.6c-0.7-0.8-1.9-1.2-3.4-1.2c-1,0-1.8,0.2-2.5,0.5
	c-0.7,0.3-1.2,0.7-1.6,1.2c-0.4,0.5-0.7,1-0.8,1.6c-0.2,0.6-0.3,1-0.3,1.5h10.1C187.3,32.6,186.8,31.4,186,30.6z"/>
<linearGradient id="SVGID_17_" gradientUnits="userSpaceOnUse" x1="202.5701" y1="-1.7028" x2="202.5701" y2="56.4533">
	<stop  offset="0" style="stop-color:#FEF082"/>
	<stop  offset="5.217390e-002" style="stop-color:#B88F2E"/>
	<stop  offset="0.1957" style="stop-color:#FFF3A9"/>
	<stop  offset="0.2957" style="stop-color:#C29A46"/>
	<stop  offset="0.5087" style="stop-color:#F3E99D"/>
	<stop  offset="0.5734" style="stop-color:#E5D184"/>
	<stop  offset="0.6434" style="stop-color:#D9BE70"/>
	<stop  offset="0.687" style="stop-color:#D5B768"/>
	<stop  offset="0.7652" style="stop-color:#FFF3A9"/>
	<stop  offset="0.9174" style="stop-color:#C09B2E"/>
	<stop  offset="1" style="stop-color:#FFF3A9"/>
</linearGradient>
<linearGradient id="SVGID_18_" gradientUnits="userSpaceOnUse" x1="194.8389" y1="33.2799" x2="210.3014" y2="33.2799">
	<stop  offset="0" style="stop-color:#FEF082"/>
	<stop  offset="5.217390e-002" style="stop-color:#B88F2E"/>
	<stop  offset="0.1957" style="stop-color:#FFF3A9"/>
	<stop  offset="0.2957" style="stop-color:#C29A46"/>
	<stop  offset="0.5087" style="stop-color:#F3E99D"/>
	<stop  offset="0.5734" style="stop-color:#E5D184"/>
	<stop  offset="0.6434" style="stop-color:#D9BE70"/>
	<stop  offset="0.687" style="stop-color:#D5B768"/>
	<stop  offset="0.7652" style="stop-color:#FFF3A9"/>
	<stop  offset="0.9174" style="stop-color:#C09B2E"/>
	<stop  offset="1" style="stop-color:#FFF3A9"/>
</linearGradient>
<path fill="url(#SVGID_17_)" stroke="url(#SVGID_18_)" stroke-miterlimit="10" d="M209.8,25.3v4.1h-4.5v11.2c0,1,0.2,1.7,0.5,2.1
	c0.3,0.3,1,0.5,2.1,0.5c0.3,0,0.7,0,1,0c0.3,0,0.6-0.1,0.9-0.1v4.8c-0.5,0.1-1.1,0.1-1.7,0.2c-0.6,0-1.3,0-1.9,0
	c-1,0-1.9-0.1-2.7-0.2c-0.9-0.1-1.6-0.4-2.3-0.8c-0.7-0.4-1.2-0.9-1.5-1.6c-0.4-0.7-0.6-1.6-0.6-2.7V29.4h-3.7v-4.1h3.7v-6.8h6.2
	v6.8H209.8z"/>
<g>
	
		<radialGradient id="SVGID_19_" cx="-1795.358" cy="-115.1759" r="8.1383" gradientTransform="matrix(0.1333 0.1333 -1.4105 1.4105 115.07 410.9923)" gradientUnits="userSpaceOnUse">
		<stop  offset="0" style="stop-color:#FFFFFF"/>
		<stop  offset="8.962709e-002" style="stop-color:#FFFFFF;stop-opacity:0.9104"/>
		<stop  offset="1" style="stop-color:#FFFFFF;stop-opacity:0"/>
	</radialGradient>
	<path fill="url(#SVGID_19_)" d="M39.3,10.3c-6.3,6.3-12,11-12.6,10.4c-0.6-0.6,4.1-6.2,10.4-12.6c6.3-6.3,12-11,12.6-10.4
		C50.3-1.7,45.6,4,39.3,10.3z"/>
	
		<radialGradient id="SVGID_20_" cx="206.2289" cy="48.1998" r="8.1383" gradientTransform="matrix(-0.1333 0.1333 -1.4105 -1.4105 133.6796 49.7106)" gradientUnits="userSpaceOnUse">
		<stop  offset="0" style="stop-color:#FFFFFF"/>
		<stop  offset="8.962709e-002" style="stop-color:#FFFFFF;stop-opacity:0.9104"/>
		<stop  offset="1" style="stop-color:#FFFFFF;stop-opacity:0"/>
	</radialGradient>
	<path fill="url(#SVGID_20_)" d="M37.1,10.3c-6.3-6.3-11-12-10.4-12.6C27.3-2.9,33,1.8,39.3,8.1c6.3,6.3,11,12,10.4,12.6
		C49.1,21.3,43.5,16.6,37.1,10.3z"/>
	
		<radialGradient id="SVGID_21_" cx="-211.2084" cy="108.8881" r="8.1399" gradientTransform="matrix(0 1 -1 0 147.0908 220.4227)" gradientUnits="userSpaceOnUse">
		<stop  offset="0" style="stop-color:#FFFFFF"/>
		<stop  offset="0.1075" style="stop-color:#FFFFFF;stop-opacity:0.8925"/>
		<stop  offset="1" style="stop-color:#FFFFFF;stop-opacity:0"/>
	</radialGradient>
	<circle fill="url(#SVGID_21_)" cx="38.2" cy="9.2" r="8.1"/>
</g>
<g>
	
		<radialGradient id="SVGID_22_" cx="-1198.2876" cy="-156.4265" r="3.9427" gradientTransform="matrix(0.1333 0.1333 -1.4105 1.4105 115.07 410.9923)" gradientUnits="userSpaceOnUse">
		<stop  offset="0" style="stop-color:#FFFFFF"/>
		<stop  offset="8.962709e-002" style="stop-color:#FFFFFF;stop-opacity:0.9104"/>
		<stop  offset="1" style="stop-color:#FFFFFF;stop-opacity:0"/>
	</radialGradient>
	<path fill="url(#SVGID_22_)" d="M176.5,31.1c-3.1,3.1-5.8,5.3-6.1,5c-0.3-0.3,2-3,5-6.1c3.1-3.1,5.8-5.3,6.1-5
		C181.8,25.4,179.6,28.1,176.5,31.1z"/>
	
		<radialGradient id="SVGID_23_" cx="-230.2614" cy="-8.2269" r="3.9427" gradientTransform="matrix(-0.1333 0.1333 -1.4105 -1.4105 133.6796 49.7106)" gradientUnits="userSpaceOnUse">
		<stop  offset="0" style="stop-color:#FFFFFF"/>
		<stop  offset="8.962709e-002" style="stop-color:#FFFFFF;stop-opacity:0.9104"/>
		<stop  offset="1" style="stop-color:#FFFFFF;stop-opacity:0"/>
	</radialGradient>
	<path fill="url(#SVGID_23_)" d="M175.5,31.1c-3.1-3.1-5.3-5.8-5-6.1c0.3-0.3,3,2,6.1,5c3.1,3.1,5.3,5.8,5,6.1
		C181.2,36.5,178.5,34.2,175.5,31.1z"/>
	
		<radialGradient id="SVGID_24_" cx="-189.8023" cy="-28.8863" r="3.9434" gradientTransform="matrix(0 1 -1 0 147.0908 220.4227)" gradientUnits="userSpaceOnUse">
		<stop  offset="0" style="stop-color:#FFFFFF"/>
		<stop  offset="0.1075" style="stop-color:#FFFFFF;stop-opacity:0.8925"/>
		<stop  offset="1" style="stop-color:#FFFFFF;stop-opacity:0"/>
	</radialGradient>
	<path fill="url(#SVGID_24_)" d="M178.9,33.5c-4.2,3.2-9-1.6-5.8-5.8C177.3,24.5,182.1,29.3,178.9,33.5L178.9,33.5z"/>
</g>
<g>
	
		<radialGradient id="SVGID_25_" cx="-1380.9497" cy="-133.2775" r="3.9427" gradientTransform="matrix(0.1333 0.1333 -1.4105 1.4105 115.07 410.9923)" gradientUnits="userSpaceOnUse">
		<stop  offset="0" style="stop-color:#FFFFFF"/>
		<stop  offset="8.962709e-002" style="stop-color:#FFFFFF;stop-opacity:0.9104"/>
		<stop  offset="1" style="stop-color:#FFFFFF;stop-opacity:0"/>
	</radialGradient>
	<path fill="url(#SVGID_25_)" d="M119.5,39.4c-3.1,3.1-5.8,5.3-6.1,5c-0.3-0.3,2-3,5-6.1c3.1-3.1,5.8-5.3,6.1-5
		C124.8,33.7,122.6,36.4,119.5,39.4z"/>
	
		<radialGradient id="SVGID_26_" cx="14.6879" cy="9.0357" r="3.9427" gradientTransform="matrix(-0.1333 0.1333 -1.4105 -1.4105 133.6796 49.7106)" gradientUnits="userSpaceOnUse">
		<stop  offset="0" style="stop-color:#FFFFFF"/>
		<stop  offset="8.962709e-002" style="stop-color:#FFFFFF;stop-opacity:0.9104"/>
		<stop  offset="1" style="stop-color:#FFFFFF;stop-opacity:0"/>
	</radialGradient>
	<path fill="url(#SVGID_26_)" d="M118.5,39.4c-3.1-3.1-5.3-5.8-5-6.1c0.3-0.3,3,2,6.1,5c3.1,3.1,5.3,5.8,5,6.1
		C124.2,44.8,121.5,42.5,118.5,39.4z"/>
	
		<radialGradient id="SVGID_27_" cx="-181.4994" cy="28.1143" r="3.9434" gradientTransform="matrix(0 1 -1 0 147.0908 220.4227)" gradientUnits="userSpaceOnUse">
		<stop  offset="0" style="stop-color:#FFFFFF"/>
		<stop  offset="0.1075" style="stop-color:#FFFFFF;stop-opacity:0.8925"/>
		<stop  offset="1" style="stop-color:#FFFFFF;stop-opacity:0"/>
	</radialGradient>
	<path fill="url(#SVGID_27_)" d="M121.9,41.8c-4.2,3.2-9-1.6-5.8-5.8C120.3,32.8,125.1,37.6,121.9,41.8L121.9,41.8z"/>
</g>
</svg>
