<?xml version="1.0" encoding="utf-8"?>
<!-- Generator: Adobe Illustrator 15.0.0, SVG Export Plug-In . SVG Version: 6.00 Build 0)  -->
<!DOCTYPE svg PUBLIC "-//W3C//DTD SVG 1.1//EN" "http://www.w3.org/Graphics/SVG/1.1/DTD/svg11.dtd">
<svg version="1.1" id="Layer_1" xmlns="http://www.w3.org/2000/svg" xmlns:xlink="http://www.w3.org/1999/xlink" x="0px" y="0px"
	 width="353.199px" height="140.356px" viewBox="248.514 229.784 353.199 140.356"
	 enable-background="new 248.514 229.784 353.199 140.356" xml:space="preserve">
<g>
	
		<image overflow="visible" opacity="0.65" enable-background="new    " width="413" height="513" xlink:href="7C059468.png"  transform="matrix(0.1778 0 0 0.1783 264.4561 267.9224)">
	</image>
	<g>
		
			<linearGradient id="SVGID_1_" gradientUnits="userSpaceOnUse" x1="139.5029" y1="245.167" x2="139.5029" y2="96.2487" gradientTransform="matrix(0.7516 0 0 -0.7516 190.9856 447.3375)">
			<stop  offset="0" style="stop-color:#FBC342"/>
			<stop  offset="0.169" style="stop-color:#9E5424"/>
			<stop  offset="0.3" style="stop-color:#E7AA37"/>
			<stop  offset="0.48" style="stop-color:#F4F19A"/>
			<stop  offset="0.58" style="stop-color:#E7AA37"/>
			<stop  offset="0.88" style="stop-color:#62270E"/>
			<stop  offset="1" style="stop-color:#E7AA37"/>
		</linearGradient>
		<path fill="url(#SVGID_1_)" d="M270.471,286.366v-12.401h50.734v9.696c-4.209,3.683-8.418,9.02-12.777,16.009
			c-4.359,6.99-7.591,14.355-9.921,22.172c-2.255,7.818-3.382,14.809-3.382,20.971h-14.28c0.225-9.621,2.48-19.467,6.614-29.539
			c4.134-9.996,9.771-19.015,16.686-26.907H270.471z"/>
	</g>
</g>
<g>
	
		<image overflow="visible" opacity="0.65" enable-background="new    " width="417" height="521" xlink:href="7C059469.png"  transform="matrix(0.1791 0 0 0.178 315.1807 266.6836)">
	</image>
	<g>
		
			<linearGradient id="SVGID_2_" gradientUnits="userSpaceOnUse" x1="207.8535" y1="245.167" x2="207.8535" y2="96.2471" gradientTransform="matrix(0.7516 0 0 -0.7516 190.9856 447.3375)">
			<stop  offset="0" style="stop-color:#FBC342"/>
			<stop  offset="0.169" style="stop-color:#9E5424"/>
			<stop  offset="0.3" style="stop-color:#E7AA37"/>
			<stop  offset="0.48" style="stop-color:#F4F19A"/>
			<stop  offset="0.58" style="stop-color:#E7AA37"/>
			<stop  offset="0.88" style="stop-color:#62270E"/>
			<stop  offset="1" style="stop-color:#E7AA37"/>
		</linearGradient>
		<path fill="url(#SVGID_2_)" d="M373.217,330.335v12.402h-52.012c0.526-4.66,2.255-9.17,5.036-13.379
			c2.781-4.209,8.343-9.771,16.686-16.762c6.689-5.637,10.748-9.395,12.326-11.424c2.029-2.781,3.082-5.487,3.082-8.193
			c0-3.006-0.902-5.261-2.63-6.915c-1.804-1.579-4.209-2.405-7.366-2.405c-3.082,0-5.562,0.827-7.366,2.555
			c-1.804,1.654-2.856,4.51-3.157,8.343l-14.807-1.353c0.902-7.366,3.608-12.627,8.268-15.859c4.66-3.232,10.448-4.811,17.438-4.811
			c7.667,0,13.604,1.879,17.964,5.562s6.539,8.343,6.539,13.83c0,3.157-0.602,6.164-1.879,8.945
			c-1.277,2.855-3.232,5.787-5.938,8.943c-1.804,2.029-5.036,5.037-9.696,8.869c-4.66,3.908-7.667,6.465-8.869,7.742
			c-1.278,1.277-2.255,2.48-3.006,3.684h29.388V330.335z"/>
	</g>
</g>
<g>
	
		<image overflow="visible" opacity="0.65" enable-background="new    " width="329" height="342" xlink:href="7C05946F.png"  transform="matrix(0.1776 0 0 0.1783 427.6538 287.9766)">
	</image>
	<g>
		
			<linearGradient id="SVGID_3_" gradientUnits="userSpaceOnUse" x1="346.7041" y1="245.1655" x2="346.7041" y2="96.2493" gradientTransform="matrix(0.7516 0 0 -0.7516 190.9856 447.3375)">
			<stop  offset="0" style="stop-color:#FBC342"/>
			<stop  offset="0.169" style="stop-color:#9E5424"/>
			<stop  offset="0.3" style="stop-color:#E7AA37"/>
			<stop  offset="0.48" style="stop-color:#F4F19A"/>
			<stop  offset="0.58" style="stop-color:#E7AA37"/>
			<stop  offset="0.88" style="stop-color:#62270E"/>
			<stop  offset="1" style="stop-color:#E7AA37"/>
		</linearGradient>
		<path fill="url(#SVGID_3_)" d="M461.457,318.083l8.043,2.33c-1.203,4.059-3.307,7.066-6.164,9.02
			c-2.855,1.955-6.539,2.932-10.973,2.932c-5.486,0-9.996-1.654-13.455-5.035c-3.531-3.383-5.26-7.967-5.26-13.83
			c0-6.164,1.803-10.975,5.336-14.432s8.191-5.111,13.98-5.111c5.035,0,9.094,1.353,12.25,4.059
			c1.879,1.579,3.309,3.833,4.209,6.839l-8.268,1.805c-0.451-1.955-1.502-3.457-3.082-4.586c-1.578-1.127-3.457-1.652-5.637-1.652
			c-3.082,0-5.561,0.977-7.441,2.932c-1.879,1.953-2.855,5.186-2.855,9.619c0,4.66,0.902,8.043,2.781,9.998
			c1.879,2.029,4.285,3.006,7.291,3.006c2.18,0,4.133-0.602,5.713-1.879C459.654,322.82,460.781,320.791,461.457,318.083z"/>
	</g>
</g>
<g>
	
		<image overflow="visible" opacity="0.65" enable-background="new    " width="250" height="283" xlink:href="7C05946A.png"  transform="matrix(0.1789 0 0 0.1791 469.1479 297.7715)">
	</image>
	<g>
		
			<linearGradient id="SVGID_4_" gradientUnits="userSpaceOnUse" x1="392.7534" y1="245.167" x2="392.7534" y2="96.246" gradientTransform="matrix(0.7516 0 0 -0.7516 190.9856 447.3375)">
			<stop  offset="0" style="stop-color:#FBC342"/>
			<stop  offset="0.169" style="stop-color:#9E5424"/>
			<stop  offset="0.3" style="stop-color:#E7AA37"/>
			<stop  offset="0.48" style="stop-color:#F4F19A"/>
			<stop  offset="0.58" style="stop-color:#E7AA37"/>
			<stop  offset="0.88" style="stop-color:#62270E"/>
			<stop  offset="1" style="stop-color:#E7AA37"/>
		</linearGradient>
		<path fill="url(#SVGID_4_)" d="M475.136,331.914v-28.109h6.314v23.375h15.783v4.811h-22.098V331.914z"/>
	</g>
</g>
<g>
	
		<image overflow="visible" opacity="0.65" enable-background="new    " width="271" height="292" xlink:href="7C05946B.png"  transform="matrix(0.1764 0 0 0.1761 495.769 297.5391)">
	</image>
	<g>
		
			<linearGradient id="SVGID_5_" gradientUnits="userSpaceOnUse" x1="430.103" y1="245.166" x2="430.103" y2="96.2469" gradientTransform="matrix(0.7516 0 0 -0.7516 190.9856 447.3375)">
			<stop  offset="0" style="stop-color:#FBC342"/>
			<stop  offset="0.169" style="stop-color:#9E5424"/>
			<stop  offset="0.3" style="stop-color:#E7AA37"/>
			<stop  offset="0.48" style="stop-color:#F4F19A"/>
			<stop  offset="0.58" style="stop-color:#E7AA37"/>
			<stop  offset="0.88" style="stop-color:#62270E"/>
			<stop  offset="1" style="stop-color:#E7AA37"/>
		</linearGradient>
		<path fill="url(#SVGID_5_)" d="M501.744,303.578h6.314v15.334c0,2.404,0.074,3.982,0.225,4.734
			c0.301,1.127,0.902,2.105,1.955,2.781c1.051,0.676,2.404,1.053,4.209,1.053c1.803,0,3.156-0.301,4.059-0.979
			c0.9-0.676,1.428-1.502,1.652-2.48c0.15-0.977,0.301-2.555,0.301-4.809v-15.709h6.314v14.881c0,3.383-0.15,5.787-0.527,7.217
			c-0.375,1.428-0.977,2.555-1.879,3.531c-0.902,0.979-2.18,1.729-3.682,2.33c-1.58,0.602-3.533,0.828-6.014,0.828
			c-3.006,0-5.262-0.301-6.84-0.902s-2.781-1.428-3.684-2.406c-0.9-0.977-1.502-2.029-1.803-3.156
			c-0.451-1.654-0.602-4.059-0.602-7.215V303.578z"/>
	</g>
</g>
<g>
	
		<image overflow="visible" opacity="0.65" enable-background="new    " width="279" height="288" xlink:href="7C059466.png"  transform="matrix(0.1759 0 0 0.1773 527.5581 297.5386)">
	</image>
	<g>
		
			<linearGradient id="SVGID_6_" gradientUnits="userSpaceOnUse" x1="473.3032" y1="245.1675" x2="473.3032" y2="96.2484" gradientTransform="matrix(0.7516 0 0 -0.7516 190.9856 447.3375)">
			<stop  offset="0" style="stop-color:#FBC342"/>
			<stop  offset="0.169" style="stop-color:#9E5424"/>
			<stop  offset="0.3" style="stop-color:#E7AA37"/>
			<stop  offset="0.48" style="stop-color:#F4F19A"/>
			<stop  offset="0.58" style="stop-color:#E7AA37"/>
			<stop  offset="0.88" style="stop-color:#62270E"/>
			<stop  offset="1" style="stop-color:#E7AA37"/>
		</linearGradient>
		<path fill="url(#SVGID_6_)" d="M533.537,303.578h12.553c2.48,0,4.359,0.076,5.563,0.301c1.201,0.15,2.33,0.602,3.307,1.203
			s1.803,1.352,2.404,2.404c0.678,0.979,0.979,2.105,0.979,3.307c0,1.354-0.377,2.557-1.203,3.684
			c-0.828,1.127-1.879,1.955-3.232,2.48c1.879,0.525,3.383,1.354,4.436,2.555c1.051,1.203,1.578,2.631,1.578,4.285
			c0,1.277-0.301,2.555-0.979,3.758c-0.676,1.203-1.578,2.18-2.705,2.932s-2.555,1.203-4.285,1.354
			c-1.051,0.074-3.607,0.15-7.666,0.225h-10.672v-28.486H533.537z M539.925,308.238v6.539h4.135c2.48,0,3.982,0,4.584-0.074
			c1.053-0.15,1.955-0.451,2.557-1.053c0.6-0.527,0.9-1.277,0.9-2.18s-0.299-1.578-0.826-2.105c-0.525-0.525-1.354-0.9-2.404-0.977
			c-0.602-0.074-2.406-0.074-5.412-0.074h-3.533V308.238z M539.925,319.511v7.592h5.863c2.254,0,3.758-0.074,4.359-0.15
			c0.977-0.15,1.729-0.525,2.33-1.127s0.902-1.428,0.902-2.404c0-0.828-0.227-1.58-0.678-2.18c-0.451-0.602-1.127-1.053-1.953-1.279
			c-0.902-0.301-2.707-0.375-5.637-0.375h-5.188V319.511z"/>
	</g>
</g>
<g>
	
		<image overflow="visible" opacity="0.65" enable-background="new    " width="1963" height="308" xlink:href="7C059467.png"  transform="matrix(0.1799 0 0 0.1775 248.5142 229.7842)">
	</image>
	<g>
		<g>
			
				<linearGradient id="SVGID_7_" gradientUnits="userSpaceOnUse" x1="304.2549" y1="245.1665" x2="304.2549" y2="96.2447" gradientTransform="matrix(0.7516 0 0 -0.7516 190.9856 447.3375)">
				<stop  offset="0" style="stop-color:#FBC342"/>
				<stop  offset="0.169" style="stop-color:#9E5424"/>
				<stop  offset="0.3" style="stop-color:#E7AA37"/>
				<stop  offset="0.48" style="stop-color:#F4F19A"/>
				<stop  offset="0.58" style="stop-color:#E7AA37"/>
				<stop  offset="0.88" style="stop-color:#62270E"/>
				<stop  offset="1" style="stop-color:#E7AA37"/>
			</linearGradient>
			<path fill="url(#SVGID_7_)" d="M417.187,241.645c1.955-1.954,2.18-3.082,2.631-5.787c0.301,1.954,0.827,4.284,2.481,5.712
				c1.502,1.353,3.607,2.03,3.607,4.51c0.074,2.48-2.18,3.307-3.684,4.66c-1.653,1.428-2.029,3.608-2.405,5.562
				c-0.451-2.706-0.601-3.683-2.556-5.637c-1.428-1.428-3.833-1.428-3.833-4.359C413.429,243.449,415.684,243.073,417.187,241.645z"
				/>
			<g>
				
					<linearGradient id="SVGID_8_" gradientUnits="userSpaceOnUse" x1="209.3965" y1="245.167" x2="209.3965" y2="96.2479" gradientTransform="matrix(0.7516 0 0 -0.7516 190.9856 447.3375)">
					<stop  offset="0" style="stop-color:#FBC342"/>
					<stop  offset="0.169" style="stop-color:#9E5424"/>
					<stop  offset="0.3" style="stop-color:#E7AA37"/>
					<stop  offset="0.48" style="stop-color:#F4F19A"/>
					<stop  offset="0.58" style="stop-color:#E7AA37"/>
					<stop  offset="0.88" style="stop-color:#62270E"/>
					<stop  offset="1" style="stop-color:#E7AA37"/>
				</linearGradient>
				<path fill="url(#SVGID_8_)" d="M304.444,257.128c1.879-7.967,10.673-7.366,12.327-7.366c5.712-0.075,13.98,3.458,23.3,7.215
					c15.333,6.164,27.058,14.582,52.237-7.441c0.15,0.15,0.301,0.15,0.376,0.526c-12.777,11.575-21.797,14.13-25.33,14.656
					c-10.974,1.579-20.519-1.804-30.064-6.013c-4.51-2.029-9.095-4.886-13.905-6.164c-3.457-0.902-10.898-1.954-14.28,0.075
					c-1.127,0.827-2.932,2.48-3.608,4.961c-0.676,2.555-0.226,5.186,1.278,7.065c1.353,1.579,4.134,3.157,6.389,2.781
					c1.578-0.226,3.533-1.804,4.209-3.382c0.226-0.602,0.451-1.428,0-2.104c0.075,0.301,0.075,0.601,0,0.902
					c-0.301,1.278-1.729,2.104-3.157,1.804c-1.428-0.3-2.33-1.578-2.029-2.856c0.3-1.278,1.729-2.104,3.157-1.804
					c0.827,0.15,1.729,0.676,2.029,1.353c0.451,0.827,0.751,1.729,0.301,2.781c-0.752,1.729-2.706,3.307-4.359,3.533
					c-3.082,0.375-5.336-0.451-7.065-2.405C304.444,263.291,303.467,261.262,304.444,257.128z"/>
				<g>
					
						<linearGradient id="SVGID_9_" gradientUnits="userSpaceOnUse" x1="112.4033" y1="245.1689" x2="112.4033" y2="96.3159" gradientTransform="matrix(0.7516 0 0 -0.7516 190.9856 447.3375)">
						<stop  offset="0" style="stop-color:#FBC342"/>
						<stop  offset="0.169" style="stop-color:#9E5424"/>
						<stop  offset="0.3" style="stop-color:#E7AA37"/>
						<stop  offset="0.48" style="stop-color:#F4F19A"/>
						<stop  offset="0.58" style="stop-color:#E7AA37"/>
						<stop  offset="0.88" style="stop-color:#62270E"/>
						<stop  offset="1" style="stop-color:#E7AA37"/>
					</linearGradient>
					<rect x="255.138" y="259.157" fill="url(#SVGID_9_)" width="40.663" height="0.827"/>
					
						<linearGradient id="SVGID_10_" gradientUnits="userSpaceOnUse" x1="87.0034" y1="245.1665" x2="87.0034" y2="96.2326" gradientTransform="matrix(0.7516 0 0 -0.7516 190.9856 447.3375)">
						<stop  offset="0" style="stop-color:#FBC342"/>
						<stop  offset="0.169" style="stop-color:#9E5424"/>
						<stop  offset="0.3" style="stop-color:#E7AA37"/>
						<stop  offset="0.48" style="stop-color:#F4F19A"/>
						<stop  offset="0.58" style="stop-color:#E7AA37"/>
						<stop  offset="0.88" style="stop-color:#62270E"/>
						<stop  offset="1" style="stop-color:#E7AA37"/>
					</linearGradient>
					<path fill="url(#SVGID_10_)" d="M258.22,259.684c0,0.977-0.827,1.804-1.804,1.804c-1.052,0-1.879-0.827-1.879-1.804
						c0-1.052,0.827-1.879,1.879-1.879C257.393,257.805,258.22,258.631,258.22,259.684z"/>
				</g>
				
					<linearGradient id="SVGID_11_" gradientUnits="userSpaceOnUse" x1="263.6162" y1="245.1665" x2="263.6162" y2="96.2474" gradientTransform="matrix(0.7516 0 0 -0.7516 190.9856 447.3375)">
					<stop  offset="0" style="stop-color:#FBC342"/>
					<stop  offset="0.169" style="stop-color:#9E5424"/>
					<stop  offset="0.3" style="stop-color:#E7AA37"/>
					<stop  offset="0.48" style="stop-color:#F4F19A"/>
					<stop  offset="0.58" style="stop-color:#E7AA37"/>
					<stop  offset="0.88" style="stop-color:#62270E"/>
					<stop  offset="1" style="stop-color:#E7AA37"/>
				</linearGradient>
				<path fill="url(#SVGID_11_)" d="M360.74,249.236c4.284-2.706,10.072,1.503,5.186,5.262c0.602-1.879,2.18-3.909-1.804-4.811
					c-4.134-0.075-5.562,6.915-0.075,7.967c3.683,0.751,7.216-1.203,8.418-1.804c4.886-2.33,10.147-6.238,15.333-7.742
					c10.898-3.082,27.509,1.503,31.944,9.471c-3.232-3.683-10.598-8.118-17.738-8.268c-3.006,0.15-5.261,1.729-5.862,3.533
					c-0.526,1.503-0.376,3.608,1.653,4.059c2.932,0.677,2.405-2.931,0.977-1.729c0-1.052,1.729-0.827,2.03,0.601
					c0.225,1.052-0.677,1.879-1.654,2.255c-2.631,0.977-5.788-0.375-6.765-2.405c-0.827-1.654-1.127-3.608-0.226-5.111
					c-6.99,1.954-11.875,6.389-16.61,8.568c-3.758,1.729-9.245,2.03-12.928,0.075C357.583,256.452,357.433,251.34,360.74,249.236z"
					/>
				
					<linearGradient id="SVGID_12_" gradientUnits="userSpaceOnUse" x1="142.9033" y1="245.167" x2="142.9033" y2="96.2479" gradientTransform="matrix(0.7516 0 0 -0.7516 190.9856 447.3375)">
					<stop  offset="0" style="stop-color:#FBC342"/>
					<stop  offset="0.169" style="stop-color:#9E5424"/>
					<stop  offset="0.3" style="stop-color:#E7AA37"/>
					<stop  offset="0.48" style="stop-color:#F4F19A"/>
					<stop  offset="0.58" style="stop-color:#E7AA37"/>
					<stop  offset="0.88" style="stop-color:#62270E"/>
					<stop  offset="1" style="stop-color:#E7AA37"/>
				</linearGradient>
				<path fill="url(#SVGID_12_)" d="M298.431,257.053c1.428-1.428,1.428-3.833,4.359-3.833c0.301,0,0.526,0,0.752,0.075
					c-1.353,1.578-2.104,3.683-2.104,5.938c0,2.405,0.902,4.585,2.48,6.238c-0.3,0.075-0.526,0.075-0.827,0.075
					c-2.48,0.075-3.307-2.18-4.66-3.683c-1.428-1.654-3.607-2.029-5.562-2.405C295.5,259.082,296.477,258.932,298.431,257.053z"/>
				
					<linearGradient id="SVGID_13_" gradientUnits="userSpaceOnUse" x1="130.8535" y1="245.167" x2="130.8535" y2="96.2619" gradientTransform="matrix(0.7516 0 0 -0.7516 190.9856 447.3375)">
					<stop  offset="0" style="stop-color:#FBC342"/>
					<stop  offset="0.169" style="stop-color:#9E5424"/>
					<stop  offset="0.3" style="stop-color:#E7AA37"/>
					<stop  offset="0.48" style="stop-color:#F4F19A"/>
					<stop  offset="0.58" style="stop-color:#E7AA37"/>
					<stop  offset="0.88" style="stop-color:#62270E"/>
					<stop  offset="1" style="stop-color:#E7AA37"/>
				</linearGradient>
				<circle fill="url(#SVGID_13_)" cx="289.337" cy="259.834" r="1.954"/>
				
					<linearGradient id="SVGID_14_" gradientUnits="userSpaceOnUse" x1="125.0532" y1="245.166" x2="125.0532" y2="96.2278" gradientTransform="matrix(0.7516 0 0 -0.7516 190.9856 447.3375)">
					<stop  offset="0" style="stop-color:#FBC342"/>
					<stop  offset="0.169" style="stop-color:#9E5424"/>
					<stop  offset="0.3" style="stop-color:#E7AA37"/>
					<stop  offset="0.48" style="stop-color:#F4F19A"/>
					<stop  offset="0.58" style="stop-color:#E7AA37"/>
					<stop  offset="0.88" style="stop-color:#62270E"/>
					<stop  offset="1" style="stop-color:#E7AA37"/>
				</linearGradient>
				<circle fill="url(#SVGID_14_)" cx="284.978" cy="259.834" r="1.428"/>
			</g>
			<g>
				
					<linearGradient id="SVGID_15_" gradientUnits="userSpaceOnUse" x1="399.3408" y1="245.167" x2="399.3408" y2="96.2479" gradientTransform="matrix(0.7516 0 0 -0.7516 190.9856 447.3375)">
					<stop  offset="0" style="stop-color:#FBC342"/>
					<stop  offset="0.169" style="stop-color:#9E5424"/>
					<stop  offset="0.3" style="stop-color:#E7AA37"/>
					<stop  offset="0.48" style="stop-color:#F4F19A"/>
					<stop  offset="0.58" style="stop-color:#E7AA37"/>
					<stop  offset="0.88" style="stop-color:#62270E"/>
					<stop  offset="1" style="stop-color:#E7AA37"/>
				</linearGradient>
				<path fill="url(#SVGID_15_)" d="M535.041,257.128c-1.879-7.967-10.674-7.366-12.326-7.366
					c-5.713-0.075-13.98,3.458-23.301,7.215c-15.332,6.164-27.059,14.582-52.238-7.441c-0.148,0.15-0.299,0.15-0.375,0.526
					c12.777,11.575,21.797,14.13,25.33,14.656c10.973,1.579,20.52-1.804,30.064-6.013c4.51-2.029,9.094-4.886,13.904-6.164
					c3.457-0.902,10.898-1.954,14.281,0.075c1.127,0.827,2.932,2.48,3.607,4.961c0.676,2.555,0.227,5.186-1.277,7.065
					c-1.354,1.579-4.135,3.157-6.389,2.781c-1.578-0.226-3.533-1.804-4.209-3.382c-0.227-0.602-0.451-1.428,0-2.104
					c-0.076,0.301-0.076,0.601,0,0.902c0.301,1.278,1.729,2.104,3.156,1.804c1.428-0.3,2.33-1.578,2.029-2.856
					s-1.729-2.104-3.156-1.804c-0.826,0.15-1.729,0.676-2.029,1.353c-0.451,0.827-0.752,1.729-0.301,2.781
					c0.752,1.729,2.705,3.307,4.359,3.533c3.082,0.375,5.336-0.451,7.064-2.405C535.115,263.291,536.093,261.262,535.041,257.128z"
					/>
				<g>
					
						<linearGradient id="SVGID_16_" gradientUnits="userSpaceOnUse" x1="496.4028" y1="245.1689" x2="496.4028" y2="96.3159" gradientTransform="matrix(0.7516 0 0 -0.7516 190.9856 447.3375)">
						<stop  offset="0" style="stop-color:#FBC342"/>
						<stop  offset="0.169" style="stop-color:#9E5424"/>
						<stop  offset="0.3" style="stop-color:#E7AA37"/>
						<stop  offset="0.48" style="stop-color:#F4F19A"/>
						<stop  offset="0.58" style="stop-color:#E7AA37"/>
						<stop  offset="0.88" style="stop-color:#62270E"/>
						<stop  offset="1" style="stop-color:#E7AA37"/>
					</linearGradient>
					<rect x="543.759" y="259.157" fill="url(#SVGID_16_)" width="40.662" height="0.827"/>
					
						<linearGradient id="SVGID_17_" gradientUnits="userSpaceOnUse" x1="521.8022" y1="245.1665" x2="521.8022" y2="96.2326" gradientTransform="matrix(0.7516 0 0 -0.7516 190.9856 447.3375)">
						<stop  offset="0" style="stop-color:#FBC342"/>
						<stop  offset="0.169" style="stop-color:#9E5424"/>
						<stop  offset="0.3" style="stop-color:#E7AA37"/>
						<stop  offset="0.48" style="stop-color:#F4F19A"/>
						<stop  offset="0.58" style="stop-color:#E7AA37"/>
						<stop  offset="0.88" style="stop-color:#62270E"/>
						<stop  offset="1" style="stop-color:#E7AA37"/>
					</linearGradient>
					<path fill="url(#SVGID_17_)" d="M581.339,259.684c0,0.977,0.828,1.804,1.879,1.804c1.053,0,1.805-0.827,1.805-1.804
						c0-1.052-0.826-1.879-1.805-1.879C582.167,257.805,581.339,258.631,581.339,259.684z"/>
				</g>
				
					<linearGradient id="SVGID_18_" gradientUnits="userSpaceOnUse" x1="345.1909" y1="245.1665" x2="345.1909" y2="96.2474" gradientTransform="matrix(0.7516 0 0 -0.7516 190.9856 447.3375)">
					<stop  offset="0" style="stop-color:#FBC342"/>
					<stop  offset="0.169" style="stop-color:#9E5424"/>
					<stop  offset="0.3" style="stop-color:#E7AA37"/>
					<stop  offset="0.48" style="stop-color:#F4F19A"/>
					<stop  offset="0.58" style="stop-color:#E7AA37"/>
					<stop  offset="0.88" style="stop-color:#62270E"/>
					<stop  offset="1" style="stop-color:#E7AA37"/>
				</linearGradient>
				<path fill="url(#SVGID_18_)" d="M478.82,249.236c-4.285-2.706-10.072,1.503-5.188,5.262c-0.6-1.879-2.18-3.909,1.805-4.811
					c4.135-0.075,5.563,6.915,0.074,7.967c-3.682,0.751-7.215-1.203-8.418-1.804c-4.885-2.33-10.146-6.238-15.332-7.742
					c-10.898-3.082-27.51,1.503-31.944,9.471c3.233-3.683,10.598-8.118,17.739-8.268c3.006,0.15,5.26,1.729,5.861,3.533
					c0.527,1.503,0.377,3.608-1.652,4.059c-2.932,0.677-2.406-2.931-0.979-1.729c0.076-1.052-1.729-0.827-2.029,0.601
					c-0.225,1.052,0.678,1.879,1.654,2.255c2.631,0.977,5.787-0.375,6.764-2.405c0.828-1.654,1.129-3.608,0.227-5.111
					c6.99,1.954,11.875,6.389,16.611,8.568c3.758,1.729,9.244,2.03,12.928,0.075C481.976,256.452,482.126,251.34,478.82,249.236z"/>
				
					<linearGradient id="SVGID_19_" gradientUnits="userSpaceOnUse" x1="465.9038" y1="245.167" x2="465.9038" y2="96.2479" gradientTransform="matrix(0.7516 0 0 -0.7516 190.9856 447.3375)">
					<stop  offset="0" style="stop-color:#FBC342"/>
					<stop  offset="0.169" style="stop-color:#9E5424"/>
					<stop  offset="0.3" style="stop-color:#E7AA37"/>
					<stop  offset="0.48" style="stop-color:#F4F19A"/>
					<stop  offset="0.58" style="stop-color:#E7AA37"/>
					<stop  offset="0.88" style="stop-color:#62270E"/>
					<stop  offset="1" style="stop-color:#E7AA37"/>
				</linearGradient>
				<path fill="url(#SVGID_19_)" d="M541.128,257.053c-1.428-1.428-1.428-3.833-4.359-3.833c-0.301,0-0.525,0-0.752,0.075
					c1.354,1.578,2.105,3.683,2.105,5.938c0,2.405-0.902,4.585-2.48,6.238c0.225,0.075,0.525,0.075,0.826,0.075
					c2.48,0.075,3.307-2.18,4.66-3.683c1.428-1.654,3.607-2.029,5.563-2.405C544.06,259.082,543.083,258.932,541.128,257.053z"/>
				
					<linearGradient id="SVGID_20_" gradientUnits="userSpaceOnUse" x1="477.9526" y1="245.167" x2="477.9526" y2="96.2619" gradientTransform="matrix(0.7516 0 0 -0.7516 190.9856 447.3375)">
					<stop  offset="0" style="stop-color:#FBC342"/>
					<stop  offset="0.169" style="stop-color:#9E5424"/>
					<stop  offset="0.3" style="stop-color:#E7AA37"/>
					<stop  offset="0.48" style="stop-color:#F4F19A"/>
					<stop  offset="0.58" style="stop-color:#E7AA37"/>
					<stop  offset="0.88" style="stop-color:#62270E"/>
					<stop  offset="1" style="stop-color:#E7AA37"/>
				</linearGradient>
				<circle fill="url(#SVGID_20_)" cx="550.222" cy="259.834" r="1.954"/>
				
					<linearGradient id="SVGID_21_" gradientUnits="userSpaceOnUse" x1="483.7534" y1="245.166" x2="483.7534" y2="96.2278" gradientTransform="matrix(0.7516 0 0 -0.7516 190.9856 447.3375)">
					<stop  offset="0" style="stop-color:#FBC342"/>
					<stop  offset="0.169" style="stop-color:#9E5424"/>
					<stop  offset="0.3" style="stop-color:#E7AA37"/>
					<stop  offset="0.48" style="stop-color:#F4F19A"/>
					<stop  offset="0.58" style="stop-color:#E7AA37"/>
					<stop  offset="0.88" style="stop-color:#62270E"/>
					<stop  offset="1" style="stop-color:#E7AA37"/>
				</linearGradient>
				<circle fill="url(#SVGID_21_)" cx="554.582" cy="259.834" r="1.428"/>
			</g>
		</g>
	</g>
</g>
<g>
	
		<image overflow="visible" opacity="0.65" enable-background="new    " width="1946" height="217" xlink:href="7C059478.png"  transform="matrix(0.1801 0 0 0.1796 253.7891 336.7495)">
	</image>
	<g>
		<g>
			
				<linearGradient id="SVGID_22_" gradientUnits="userSpaceOnUse" x1="314.7549" y1="245.1675" x2="314.7549" y2="96.2484" gradientTransform="matrix(0.7516 0 0 -0.7516 190.9856 447.3375)">
				<stop  offset="0" style="stop-color:#FBC342"/>
				<stop  offset="0.169" style="stop-color:#9E5424"/>
				<stop  offset="0.3" style="stop-color:#E7AA37"/>
				<stop  offset="0.48" style="stop-color:#F4F19A"/>
				<stop  offset="0.58" style="stop-color:#E7AA37"/>
				<stop  offset="0.88" style="stop-color:#62270E"/>
				<stop  offset="1" style="stop-color:#E7AA37"/>
			</linearGradient>
			<path fill="url(#SVGID_22_)" d="M425.08,354.988c1.879,1.354,2.104,2.18,2.555,4.059c0.301-1.428,0.752-3.006,2.404-4.059
				c1.43-0.9,3.459-1.428,3.533-3.156c0.076-1.729-2.104-2.33-3.607-3.232c-1.578-0.977-1.955-2.555-2.33-3.908
				c-0.451,1.879-0.602,2.557-2.404,3.984c-1.354,1.053-3.684,0.977-3.684,3.082C421.546,353.71,423.726,353.937,425.08,354.988z"/>
			<g>
				
					<linearGradient id="SVGID_23_" gradientUnits="userSpaceOnUse" x1="212.5381" y1="245.1675" x2="212.5381" y2="96.2484" gradientTransform="matrix(0.7516 0 0 -0.7516 190.9856 447.3375)">
					<stop  offset="0" style="stop-color:#FBC342"/>
					<stop  offset="0.169" style="stop-color:#9E5424"/>
					<stop  offset="0.3" style="stop-color:#E7AA37"/>
					<stop  offset="0.48" style="stop-color:#F4F19A"/>
					<stop  offset="0.58" style="stop-color:#E7AA37"/>
					<stop  offset="0.88" style="stop-color:#62270E"/>
					<stop  offset="1" style="stop-color:#E7AA37"/>
				</linearGradient>
				<path fill="url(#SVGID_23_)" d="M308.202,351.23c1.879,5.637,10.297,5.188,11.951,5.188c5.562,0.074,13.529-2.406,22.549-5.111
					c14.882-4.359,26.156-10.297,50.583,5.26c0.15-0.074,0.301-0.074,0.376-0.375c-12.402-8.117-21.121-9.922-24.503-10.297
					c-10.598-1.127-19.917,1.277-29.087,4.209c-4.435,1.428-8.794,3.457-13.454,4.283c-3.307,0.602-10.598,1.354-13.83,0
					c-1.052-0.6-2.856-1.729-3.458-3.457c-0.601-1.803-0.225-3.607,1.278-4.961c1.278-1.127,3.984-2.18,6.164-1.953
					c1.578,0.15,3.382,1.277,4.059,2.404c0.226,0.377,0.375,0.979,0,1.504c0.075-0.225,0.075-0.451,0-0.676
					c-0.301-0.902-1.654-1.504-3.006-1.279c-1.353,0.227-2.255,1.129-1.955,1.955c0.301,0.902,1.654,1.504,3.007,1.277
					c0.827-0.15,1.653-0.525,1.954-0.977c0.375-0.602,0.676-1.203,0.301-1.955c-0.677-1.201-2.631-2.33-4.285-2.48
					c-2.931-0.301-5.111,0.301-6.839,1.654C308.127,346.947,307.225,348.375,308.202,351.23z"/>
				<g>
					
						<linearGradient id="SVGID_24_" gradientUnits="userSpaceOnUse" x1="118.5532" y1="245.166" x2="118.5532" y2="96.2469" gradientTransform="matrix(0.7516 0 0 -0.7516 190.9856 447.3375)">
						<stop  offset="0" style="stop-color:#FBC342"/>
						<stop  offset="0.169" style="stop-color:#9E5424"/>
						<stop  offset="0.3" style="stop-color:#E7AA37"/>
						<stop  offset="0.48" style="stop-color:#F4F19A"/>
						<stop  offset="0.58" style="stop-color:#E7AA37"/>
						<stop  offset="0.88" style="stop-color:#62270E"/>
						<stop  offset="1" style="stop-color:#E7AA37"/>
					</linearGradient>
					<rect x="260.399" y="349.277" fill="url(#SVGID_24_)" width="39.385" height="0.602"/>
					
						<linearGradient id="SVGID_25_" gradientUnits="userSpaceOnUse" x1="93.8535" y1="245.1333" x2="93.8535" y2="96.257" gradientTransform="matrix(0.7516 0 0 -0.7516 190.9856 447.3375)">
						<stop  offset="0" style="stop-color:#FBC342"/>
						<stop  offset="0.169" style="stop-color:#9E5424"/>
						<stop  offset="0.3" style="stop-color:#E7AA37"/>
						<stop  offset="0.48" style="stop-color:#F4F19A"/>
						<stop  offset="0.58" style="stop-color:#E7AA37"/>
						<stop  offset="0.88" style="stop-color:#62270E"/>
						<stop  offset="1" style="stop-color:#E7AA37"/>
					</linearGradient>
					<path fill="url(#SVGID_25_)" d="M263.331,349.501c0-0.676-0.827-1.277-1.804-1.277s-1.804,0.602-1.804,1.277
						c0,0.752,0.827,1.277,1.804,1.277C262.579,350.779,263.331,350.177,263.331,349.501z"/>
				</g>
				
					<linearGradient id="SVGID_26_" gradientUnits="userSpaceOnUse" x1="265.0693" y1="245.1577" x2="265.0693" y2="96.2502" gradientTransform="matrix(0.7516 0 0 -0.7516 190.9856 447.3375)">
					<stop  offset="0" style="stop-color:#FBC342"/>
					<stop  offset="0.169" style="stop-color:#9E5424"/>
					<stop  offset="0.3" style="stop-color:#E7AA37"/>
					<stop  offset="0.48" style="stop-color:#F4F19A"/>
					<stop  offset="0.58" style="stop-color:#E7AA37"/>
					<stop  offset="0.88" style="stop-color:#62270E"/>
					<stop  offset="1" style="stop-color:#E7AA37"/>
				</linearGradient>
				<path fill="url(#SVGID_26_)" d="M362.694,356.867c4.209,1.955,9.771-1.051,5.036-3.682c0.601,1.352,2.104,2.781-1.729,3.381
					c-3.983,0-5.412-4.885-0.075-5.637c3.533-0.525,6.99,0.902,8.118,1.277c4.735,1.654,9.771,4.359,14.882,5.412
					c10.598,2.18,26.683-1.053,30.967-6.689c-3.082,2.557-10.222,5.713-17.137,5.787c-2.932-0.15-5.036-1.201-5.637-2.479
					c-0.526-1.053-0.376-2.557,1.578-2.857c2.856-0.451,2.33,2.029,0.977,1.203c0,0.752,1.729,0.525,1.955-0.451
					c0.15-0.752-0.677-1.354-1.579-1.578c-2.555-0.676-5.637,0.301-6.614,1.729c-0.827,1.203-1.052,2.555-0.226,3.607
					c-6.764-1.354-11.5-4.51-16.16-6.012c-3.683-1.203-8.944-1.43-12.477,0C359.688,351.757,359.462,355.365,362.694,356.867z"/>
				
					<linearGradient id="SVGID_27_" gradientUnits="userSpaceOnUse" x1="147.9033" y1="245.1812" x2="147.9033" y2="96.2434" gradientTransform="matrix(0.7516 0 0 -0.7516 190.9856 447.3375)">
					<stop  offset="0" style="stop-color:#FBC342"/>
					<stop  offset="0.169" style="stop-color:#9E5424"/>
					<stop  offset="0.3" style="stop-color:#E7AA37"/>
					<stop  offset="0.48" style="stop-color:#F4F19A"/>
					<stop  offset="0.58" style="stop-color:#E7AA37"/>
					<stop  offset="0.88" style="stop-color:#62270E"/>
					<stop  offset="1" style="stop-color:#E7AA37"/>
				</linearGradient>
				<path fill="url(#SVGID_27_)" d="M302.265,351.38c1.428,0.977,1.353,2.707,4.209,2.707c0.301,0,0.526,0,0.751-0.076
					c-1.278-1.127-2.104-2.555-2.104-4.209c0-1.729,0.902-3.232,2.405-4.434c-0.226-0.076-0.526-0.076-0.827-0.076
					c-2.405,0-3.232,1.504-4.51,2.631c-1.353,1.127-3.458,1.428-5.412,1.654C299.483,349.878,300.386,350.027,302.265,351.38z"/>
				
					<linearGradient id="SVGID_28_" gradientUnits="userSpaceOnUse" x1="136.4531" y1="245.1353" x2="136.4531" y2="96.2565" gradientTransform="matrix(0.7516 0 0 -0.7516 190.9856 447.3375)">
					<stop  offset="0" style="stop-color:#FBC342"/>
					<stop  offset="0.169" style="stop-color:#9E5424"/>
					<stop  offset="0.3" style="stop-color:#E7AA37"/>
					<stop  offset="0.48" style="stop-color:#F4F19A"/>
					<stop  offset="0.58" style="stop-color:#E7AA37"/>
					<stop  offset="0.88" style="stop-color:#62270E"/>
					<stop  offset="1" style="stop-color:#E7AA37"/>
				</linearGradient>
				<ellipse fill="url(#SVGID_28_)" cx="293.546" cy="349.426" rx="1.879" ry="1.353"/>
				
					<linearGradient id="SVGID_29_" gradientUnits="userSpaceOnUse" x1="130.7534" y1="245.127" x2="130.7534" y2="96.2598" gradientTransform="matrix(0.7516 0 0 -0.7516 190.9856 447.3375)">
					<stop  offset="0" style="stop-color:#FBC342"/>
					<stop  offset="0.169" style="stop-color:#9E5424"/>
					<stop  offset="0.3" style="stop-color:#E7AA37"/>
					<stop  offset="0.48" style="stop-color:#F4F19A"/>
					<stop  offset="0.58" style="stop-color:#E7AA37"/>
					<stop  offset="0.88" style="stop-color:#62270E"/>
					<stop  offset="1" style="stop-color:#E7AA37"/>
				</linearGradient>
				<ellipse fill="url(#SVGID_29_)" cx="289.262" cy="349.426" rx="1.428" ry="1.052"/>
			</g>
			<g>
				
					<linearGradient id="SVGID_30_" gradientUnits="userSpaceOnUse" x1="406.8682" y1="245.1694" x2="406.8682" y2="96.2461" gradientTransform="matrix(0.7516 0 0 -0.7516 190.9856 447.3375)">
					<stop  offset="0" style="stop-color:#FBC342"/>
					<stop  offset="0.169" style="stop-color:#9E5424"/>
					<stop  offset="0.3" style="stop-color:#E7AA37"/>
					<stop  offset="0.48" style="stop-color:#F4F19A"/>
					<stop  offset="0.58" style="stop-color:#E7AA37"/>
					<stop  offset="0.88" style="stop-color:#62270E"/>
					<stop  offset="1" style="stop-color:#E7AA37"/>
				</linearGradient>
				<path fill="url(#SVGID_30_)" d="M539.324,350.177c-1.879,5.639-10.297,5.188-11.949,5.188
					c-5.563,0.074-13.529-2.406-22.549-5.111c-14.883-4.359-26.156-10.297-50.584,5.262c-0.15-0.076-0.301-0.076-0.377-0.377
					c12.402-8.117,21.121-9.92,24.504-10.297c10.598-1.127,19.918,1.277,29.088,4.209c4.359,1.428,8.793,3.457,13.453,4.285
					c3.307,0.602,10.598,1.352,13.83,0c1.053-0.602,2.855-1.729,3.457-3.457c0.602-1.805,0.227-3.609-1.277-4.961
					c-1.277-1.129-3.984-2.18-6.164-1.955c-1.502,0.15-3.381,1.277-4.059,2.406c-0.225,0.375-0.375,0.977,0,1.502
					c-0.074-0.225-0.074-0.451,0-0.676c0.301-0.902,1.654-1.504,3.008-1.277c1.352,0.225,2.254,1.127,1.953,1.953
					c-0.301,0.902-1.654,1.504-3.006,1.277c-0.828-0.15-1.654-0.525-1.955-0.977c-0.375-0.602-0.676-1.203-0.301-1.953
					c0.678-1.203,2.631-2.33,4.285-2.48c2.932-0.301,5.111,0.301,6.84,1.652C539.4,345.894,540.302,347.322,539.324,350.177z"/>
				<g>
					
						<linearGradient id="SVGID_31_" gradientUnits="userSpaceOnUse" x1="500.8521" y1="245.166" x2="500.8521" y2="96.2469" gradientTransform="matrix(0.7516 0 0 -0.7516 190.9856 447.3375)">
						<stop  offset="0" style="stop-color:#FBC342"/>
						<stop  offset="0.169" style="stop-color:#9E5424"/>
						<stop  offset="0.3" style="stop-color:#E7AA37"/>
						<stop  offset="0.48" style="stop-color:#F4F19A"/>
						<stop  offset="0.58" style="stop-color:#E7AA37"/>
						<stop  offset="0.88" style="stop-color:#62270E"/>
						<stop  offset="1" style="stop-color:#E7AA37"/>
					</linearGradient>
					<rect x="547.742" y="348.224" fill="url(#SVGID_31_)" width="39.385" height="0.602"/>
					
						<linearGradient id="SVGID_32_" gradientUnits="userSpaceOnUse" x1="525.4526" y1="245.1997" x2="525.4526" y2="96.2378" gradientTransform="matrix(0.7516 0 0 -0.7516 190.9856 447.3375)">
						<stop  offset="0" style="stop-color:#FBC342"/>
						<stop  offset="0.169" style="stop-color:#9E5424"/>
						<stop  offset="0.3" style="stop-color:#E7AA37"/>
						<stop  offset="0.48" style="stop-color:#F4F19A"/>
						<stop  offset="0.58" style="stop-color:#E7AA37"/>
						<stop  offset="0.88" style="stop-color:#62270E"/>
						<stop  offset="1" style="stop-color:#E7AA37"/>
					</linearGradient>
					<path fill="url(#SVGID_32_)" d="M584.121,348.449c0-0.676,0.826-1.277,1.805-1.277c0.977,0,1.803,0.602,1.803,1.277
						c0,0.752-0.826,1.279-1.803,1.279C584.947,349.728,584.121,349.126,584.121,348.449z"/>
				</g>
				
					<linearGradient id="SVGID_33_" gradientUnits="userSpaceOnUse" x1="354.3379" y1="245.167" x2="354.3379" y2="96.2479" gradientTransform="matrix(0.7516 0 0 -0.7516 190.9856 447.3375)">
					<stop  offset="0" style="stop-color:#FBC342"/>
					<stop  offset="0.169" style="stop-color:#9E5424"/>
					<stop  offset="0.3" style="stop-color:#E7AA37"/>
					<stop  offset="0.48" style="stop-color:#F4F19A"/>
					<stop  offset="0.58" style="stop-color:#E7AA37"/>
					<stop  offset="0.88" style="stop-color:#62270E"/>
					<stop  offset="1" style="stop-color:#E7AA37"/>
				</linearGradient>
				<path fill="url(#SVGID_33_)" d="M484.832,355.74c-4.209,1.955-9.77-1.053-5.035-3.682c-0.602,1.352-2.105,2.779,1.729,3.381
					c3.984,0,5.412-4.885,0.076-5.637c-3.533-0.525-6.99,0.902-8.119,1.277c-4.734,1.654-9.77,4.359-14.881,5.412
					c-10.598,2.18-26.684-1.053-30.967-6.689c3.082,2.555,10.223,5.713,17.137,5.787c2.932-0.15,5.035-1.203,5.637-2.48
					c0.527-1.051,0.377-2.555-1.578-2.855c-2.855-0.451-2.33,2.029-0.977,1.203c0,0.752-1.729,0.525-1.955-0.451
					c-0.15-0.752,0.678-1.354,1.578-1.578c2.557-0.678,5.639,0.301,6.615,1.729c0.826,1.201,1.053,2.555,0.225,3.607
					c6.766-1.354,11.5-4.51,16.16-6.014c3.684-1.201,8.945-1.428,12.477,0C487.839,350.705,488.064,354.238,484.832,355.74z"/>
				
					<linearGradient id="SVGID_34_" gradientUnits="userSpaceOnUse" x1="471.4019" y1="245.1523" x2="471.4019" y2="96.2519" gradientTransform="matrix(0.7516 0 0 -0.7516 190.9856 447.3375)">
					<stop  offset="0" style="stop-color:#FBC342"/>
					<stop  offset="0.169" style="stop-color:#9E5424"/>
					<stop  offset="0.3" style="stop-color:#E7AA37"/>
					<stop  offset="0.48" style="stop-color:#F4F19A"/>
					<stop  offset="0.58" style="stop-color:#E7AA37"/>
					<stop  offset="0.88" style="stop-color:#62270E"/>
					<stop  offset="1" style="stop-color:#E7AA37"/>
				</linearGradient>
				<path fill="url(#SVGID_34_)" d="M545.187,350.253c-1.428,0.977-1.354,2.705-4.209,2.705c-0.301,0-0.525,0-0.752-0.074
					c1.277-1.127,2.105-2.557,2.105-4.209c0-1.729-0.902-3.232-2.406-4.436c0.227-0.074,0.527-0.074,0.828-0.074
					c2.404,0,3.23,1.502,4.508,2.631c1.354,1.127,3.459,1.428,5.412,1.652C548.042,348.826,547.142,348.9,545.187,350.253z"/>
				
					<linearGradient id="SVGID_35_" gradientUnits="userSpaceOnUse" x1="482.9526" y1="245.1978" x2="482.9526" y2="96.2383" gradientTransform="matrix(0.7516 0 0 -0.7516 190.9856 447.3375)">
					<stop  offset="0" style="stop-color:#FBC342"/>
					<stop  offset="0.169" style="stop-color:#9E5424"/>
					<stop  offset="0.3" style="stop-color:#E7AA37"/>
					<stop  offset="0.48" style="stop-color:#F4F19A"/>
					<stop  offset="0.58" style="stop-color:#E7AA37"/>
					<stop  offset="0.88" style="stop-color:#62270E"/>
					<stop  offset="1" style="stop-color:#E7AA37"/>
				</linearGradient>
				<ellipse fill="url(#SVGID_35_)" cx="553.982" cy="348.375" rx="1.879" ry="1.354"/>
				
					<linearGradient id="SVGID_36_" gradientUnits="userSpaceOnUse" x1="488.6528" y1="245.2261" x2="488.6528" y2="96.2291" gradientTransform="matrix(0.7516 0 0 -0.7516 190.9856 447.3375)">
					<stop  offset="0" style="stop-color:#FBC342"/>
					<stop  offset="0.169" style="stop-color:#9E5424"/>
					<stop  offset="0.3" style="stop-color:#E7AA37"/>
					<stop  offset="0.48" style="stop-color:#F4F19A"/>
					<stop  offset="0.58" style="stop-color:#E7AA37"/>
					<stop  offset="0.88" style="stop-color:#62270E"/>
					<stop  offset="1" style="stop-color:#E7AA37"/>
				</linearGradient>
				<ellipse fill="url(#SVGID_36_)" cx="558.265" cy="348.375" rx="1.428" ry="1.053"/>
			</g>
		</g>
	</g>
</g>
<g>
	
		<image overflow="visible" opacity="0.65" enable-background="new    " width="438" height="521" xlink:href="7C05947B.png"  transform="matrix(0.1787 0 0 0.178 367.1733 266.6836)">
	</image>
	<g>
		<g>
			
				<linearGradient id="SVGID_37_" gradientUnits="userSpaceOnUse" x1="279.4541" y1="245.167" x2="279.4541" y2="96.2471" gradientTransform="matrix(0.7516 0 0 -0.7516 190.9856 447.3375)">
				<stop  offset="0" style="stop-color:#FBC342"/>
				<stop  offset="0.169" style="stop-color:#9E5424"/>
				<stop  offset="0.3" style="stop-color:#E7AA37"/>
				<stop  offset="0.48" style="stop-color:#F4F19A"/>
				<stop  offset="0.58" style="stop-color:#E7AA37"/>
				<stop  offset="0.88" style="stop-color:#62270E"/>
				<stop  offset="1" style="stop-color:#E7AA37"/>
			</linearGradient>
			<polygon fill="url(#SVGID_37_)" points="404.86,300.496 404.86,316.957 387.047,316.957 404.86,293.13 404.86,293.281 
				419.216,273.588 419.216,272.687 406.739,272.687 373.217,317.033 373.217,328.757 404.86,328.757 404.86,342.738 
				419.216,342.738 419.216,328.757 428.837,328.757 428.837,316.957 419.216,316.957 419.216,300.496 			"/>
		</g>
	</g>
</g>
</svg>
