<?xml version="1.0" encoding="utf-8"?>
<!-- Generator: Adobe Illustrator 15.0.0, SVG Export Plug-In . SVG Version: 6.00 Build 0)  -->
<!DOCTYPE svg PUBLIC "-//W3C//DTD SVG 1.1//EN" "http://www.w3.org/Graphics/SVG/1.1/DTD/svg11.dtd">
<svg version="1.1" id="Layer_1" xmlns="http://www.w3.org/2000/svg" xmlns:xlink="http://www.w3.org/1999/xlink" x="0px" y="0px"
	 width="34.667px" height="36.234px" viewBox="0 0 34.667 36.234" enable-background="new 0 0 34.667 36.234" xml:space="preserve">
<linearGradient id="SVGID_1_" gradientUnits="userSpaceOnUse" x1="-43.3955" y1="27.5703" x2="-21.6408" y2="-4.6824">
	<stop  offset="0" style="stop-color:#D01F00"/>
	<stop  offset="0.0262" style="stop-color:#D83E02"/>
	<stop  offset="0.0663" style="stop-color:#E46805"/>
	<stop  offset="0.1074" style="stop-color:#ED8A08"/>
	<stop  offset="0.149" style="stop-color:#F4A50A"/>
	<stop  offset="0.1913" style="stop-color:#F9B80B"/>
	<stop  offset="0.2347" style="stop-color:#FCC30C"/>
	<stop  offset="0.2809" style="stop-color:#FDC70C"/>
	<stop  offset="0.6685" style="stop-color:#F3903F"/>
	<stop  offset="0.8876" style="stop-color:#ED683C"/>
	<stop  offset="1" style="stop-color:#E93E3A"/>
</linearGradient>
<path fill-rule="evenodd" clip-rule="evenodd" fill="url(#SVGID_1_)" d="M-44.303-3.014c-1.562,0-3.947-0.274-3.947,2.024v22.386
	c0,1.113,0.912,2.023,2.025,2.023h1.924c-0.273-0.621-0.426-1.307-0.426-2.023V-0.99C-44.727-1.709-44.575-2.394-44.303-3.014
	L-44.303-3.014z M-15.049,16.388h-8.034c-8.18,0-8.18-12.372,0-12.372h8.034V-0.99c0-1.114-0.912-2.024-2.024-2.024h-24.156
	c-1.111,0-2.025,0.913-2.025,2.024v22.386c0,1.859,1.571,2.023,2.931,2.023h23.25c1.113,0,2.024-0.912,2.024-2.023V16.388
	L-15.049,16.388z M-22.933,8.889c0.725,0,1.313,0.588,1.313,1.313c0,0.725-0.589,1.313-1.313,1.313s-1.312-0.588-1.312-1.313
	C-24.245,9.477-23.657,8.889-22.933,8.889L-22.933,8.889z M-15.049,7.056v6.293h-8.034c-4.165,0-4.165-6.293,0-6.293H-15.049z"/>
<linearGradient id="SVGID_2_" gradientUnits="userSpaceOnUse" x1="2" y1="18.2178" x2="33.9375" y2="18.2178">
	<stop  offset="0.0061" style="stop-color:#BCBEC0"/>
	<stop  offset="0.4788" style="stop-color:#FFFFFF"/>
	<stop  offset="0.9939" style="stop-color:#58595B"/>
</linearGradient>
<path fill-rule="evenodd" clip-rule="evenodd" fill="url(#SVGID_2_)" d="M18.577,7.584c-3.465,0.134-6.804,1.557-9.318,4.072
	c-2.521,2.521-4.081,6.006-4.081,9.854s1.56,7.333,4.081,9.853c2.521,2.522,6.005,4.081,9.853,4.081
	c0.227,0,0.452-0.006,0.677-0.015c-0.598,0.066-1.205,0.103-1.82,0.103c-4.409,0-8.402-1.787-11.291-4.677
	C3.788,27.963,2,23.972,2,19.562c0-4.408,1.788-8.402,4.677-11.291c3.476-3.476,8.333-5.111,13.097-4.576l0.859-2.792l5.494,6.406
	l-8.147,2.208L18.577,7.584L18.577,7.584z M21.541,22.437V19.08l-2.247,3.357H21.541L21.541,22.437z M21.541,26.062h1.825v-1.978
	h1.224v-1.647h-1.224v-6.248h-1.583l-4.252,6.255v1.64h4.009V26.062L21.541,26.062z M17.305,24.318h-3.747
	c0.098-0.169,0.226-0.346,0.386-0.524c0.158-0.181,0.536-0.543,1.133-1.089c0.595-0.547,1.009-0.965,1.235-1.259
	c0.345-0.439,0.597-0.857,0.755-1.258c0.158-0.403,0.237-0.824,0.237-1.268c0-0.78-0.276-1.432-0.83-1.956
	c-0.556-0.523-1.318-0.787-2.289-0.787c-0.885,0-1.623,0.227-2.213,0.678c-0.589,0.452-0.94,1.199-1.052,2.237l1.881,0.188
	c0.037-0.551,0.169-0.945,0.4-1.181c0.233-0.238,0.545-0.357,0.939-0.357c0.395,0,0.706,0.111,0.931,0.338
	c0.226,0.227,0.338,0.55,0.338,0.97c0,0.383-0.13,0.767-0.389,1.156c-0.193,0.281-0.712,0.819-1.561,1.611
	c-1.053,0.981-1.76,1.768-2.117,2.361c-0.357,0.592-0.572,1.219-0.643,1.883h6.603V24.318L17.305,24.318z M25.721,15.095h-0.914
	v4.181h0.914v-1.144c0-0.289,0.028-0.509,0.083-0.657c0.196-0.521,1.03-0.565,1.209-0.072c0.034,0.097,0.038,0.274,0.038,0.636
	v1.237h0.912v-1.439c0-0.309-0.018-0.538-0.048-0.685c-0.202-0.948-1.662-1.179-2.194-0.543V15.095L25.721,15.095z M28.36,7.439
	l0.878,1.181l-3.415,0.675c1.157,0.638,2.216,1.435,3.141,2.361c2.522,2.521,4.083,6.006,4.083,9.854
	c0,2.694-0.768,5.209-2.088,7.343c1.873-2.619,2.979-5.825,2.979-9.291c0-4.408-1.789-8.402-4.679-11.291
	C28.97,7.982,28.671,7.706,28.36,7.439z"/>
</svg>
