<?xml version="1.0" encoding="utf-8"?>
<!-- Generator: Adobe Illustrator 15.0.0, SVG Export Plug-In . SVG Version: 6.00 Build 0)  -->
<!DOCTYPE svg PUBLIC "-//W3C//DTD SVG 1.1//EN" "http://www.w3.org/Graphics/SVG/1.1/DTD/svg11.dtd">
<svg version="1.1" id="Layer_1" xmlns="http://www.w3.org/2000/svg" xmlns:xlink="http://www.w3.org/1999/xlink" x="0px" y="0px"
	 width="48px" height="36.234px" viewBox="0 0 48 36.234" enable-background="new 0 0 48 36.234" xml:space="preserve">
<linearGradient id="SVGID_1_" gradientUnits="userSpaceOnUse" x1="-43.3955" y1="27.5703" x2="-21.6408" y2="-4.6824">
	<stop  offset="0" style="stop-color:#D01F00"/>
	<stop  offset="0.0262" style="stop-color:#D83E02"/>
	<stop  offset="0.0663" style="stop-color:#E46805"/>
	<stop  offset="0.1074" style="stop-color:#ED8A08"/>
	<stop  offset="0.149" style="stop-color:#F4A50A"/>
	<stop  offset="0.1913" style="stop-color:#F9B80B"/>
	<stop  offset="0.2347" style="stop-color:#FCC30C"/>
	<stop  offset="0.2809" style="stop-color:#FDC70C"/>
	<stop  offset="0.6685" style="stop-color:#F3903F"/>
	<stop  offset="0.8876" style="stop-color:#ED683C"/>
	<stop  offset="1" style="stop-color:#E93E3A"/>
</linearGradient>
<path fill-rule="evenodd" clip-rule="evenodd" fill="url(#SVGID_1_)" d="M-44.303-3.014c-1.562,0-3.947-0.274-3.947,2.024v22.386
	c0,1.113,0.912,2.023,2.025,2.023h1.924c-0.273-0.621-0.426-1.307-0.426-2.023V-0.99C-44.727-1.709-44.575-2.394-44.303-3.014
	L-44.303-3.014z M-15.049,16.388h-8.034c-8.18,0-8.18-12.372,0-12.372h8.034V-0.99c0-1.114-0.912-2.024-2.024-2.024h-24.156
	c-1.111,0-2.025,0.913-2.025,2.024v22.386c0,1.859,1.571,2.023,2.931,2.023h23.25c1.113,0,2.024-0.912,2.024-2.023V16.388
	L-15.049,16.388z M-22.933,8.889c0.725,0,1.313,0.588,1.313,1.313c0,0.725-0.589,1.313-1.313,1.313s-1.312-0.588-1.312-1.313
	C-24.245,9.477-23.657,8.889-22.933,8.889L-22.933,8.889z M-15.049,7.056v6.293h-8.034c-4.165,0-4.165-6.293,0-6.293H-15.049z"/>
<linearGradient id="SVGID_2_" gradientUnits="userSpaceOnUse" x1="27.2354" y1="39.0059" x2="19.4238" y2="2.2556">
	<stop  offset="0.0061" style="stop-color:#BCBEC0"/>
	<stop  offset="0.4788" style="stop-color:#FFFFFF"/>
	<stop  offset="0.9939" style="stop-color:#58595B"/>
</linearGradient>
<path fill-rule="evenodd" clip-rule="evenodd" fill="url(#SVGID_2_)" d="M6.061,16.698h36.216l-0.002,0.034
	c0,1.125,0.912,2.036,2.035,2.036h0.034v11.624l-0.034-0.003c-1.123,0-2.035,0.913-2.035,2.036l0.002,0.034H6.061l0.001-0.034
	c0-1.123-0.912-2.036-2.035-2.036l-0.034,0.003V18.768h0.034c1.124,0,2.035-0.911,2.035-2.036L6.061,16.698L6.061,16.698z
	 M8.235,6.506l24.604-3.692l0.004,0.023c0.114,0.763,0.827,1.289,1.589,1.174l0.023-0.002l0.261,1.745L7.067,8.301L7.041,8.122
	l0.022-0.003C7.827,8.004,8.354,7.292,8.239,6.53L8.235,6.506L8.235,6.506z M36.362,5.602l-0.731-4.873L4.955,5.331l0.468,3.122
	L4,8.584L4.526,14.3H1.592v20.56h45.153V14.3h-3.177l-0.854-9.283L36.362,5.602L36.362,5.602z M8.02,10.289l0.004,0.028
	c0.088,0.963-0.62,1.817-1.584,1.907L6.41,12.226L6.602,14.3H18.31c0.555-2.473,2.649-4.417,5.307-4.662
	c3.04-0.281,5.761,1.759,6.408,4.662h11.468l-0.485-5.262l-0.03,0.003c-0.963,0.09-1.815-0.62-1.905-1.583l-0.001-0.029L8.02,10.289
	L8.02,10.289z M24.435,14.3h-0.792l-0.106-1.152c-0.319,0.104-0.625,0.377-0.592,0.741c0.016,0.161,0.073,0.297,0.171,0.412h-1.624
	c-0.145-0.696,0.125-1.457,0.854-1.946c0.3-0.203,0.646-0.33,1.031-0.381l-0.066-0.729l0.835-0.078l0.063,0.688
	c0.59-0.041,1.171,0.004,1.737,0.137l-0.049,1.182c-0.533-0.168-1.063-0.229-1.585-0.181L24.435,14.3L24.435,14.3z M24.17,17.607
	c-3.852,0-6.972,3.122-6.972,6.971c0,3.85,3.12,6.973,6.972,6.973c3.85,0,6.972-3.123,6.972-6.973
	C31.142,20.729,28.02,17.607,24.17,17.607L24.17,17.607z M21.293,28.519c0.738,0.275,1.523,0.416,2.35,0.43v0.78h0.973v-0.854
	c1.956-0.263,3.323-2.302,1.994-3.933c-0.317-0.39-0.866-0.749-1.643-1.066l-0.351-0.148v-2.167c0.61,0,1.214,0.125,1.814,0.377
	l0.184-1.363c-0.644-0.213-1.309-0.328-1.998-0.343v-0.801h-0.973v0.853c-0.453,0.018-0.863,0.127-1.235,0.331
	c-1.657,0.905-1.589,3.053,0.082,3.948c0.17,0.094,0.459,0.242,0.875,0.445l0.278,0.132v2.372c-0.747-0.01-1.468-0.171-2.167-0.473
	L21.293,28.519L21.293,28.519z M24.555,25.59v1.764C25.626,27.023,25.544,25.993,24.555,25.59L24.555,25.59z M23.702,23.364v-1.706
	c-0.38,0.085-0.763,0.372-0.763,0.793C22.938,22.87,23.193,23.174,23.702,23.364z"/>
</svg>
